travis_fold:start:worker_info
Worker information
hostname: 622fa9fb-8a42-4d81-8fa3-0146484677a0@1.i-0022c49-production-2-worker-org-ec2.travisci.net
version: v3.6.0 https://github.com/travis-ci/worker/tree/170b2a0bb43234479fd1911ba9e4dbcc36dadfad
instance: 4528cc5 travisci/ci-garnet:packer-1512502276-986baf0 (via amqp)
startup: 702.627019ms
travis_fold:end:worker_info
travis_fold:start:system_info
Build system information
Build language: java
Build group: stable
Build dist: trusty
Build id: 378866152
Job id: 378866153
Runtime kernel version: 4.14.12-041412-generic
travis-build version: 51ebd738f
Build image provisioning date and time
Tue Dec  5 20:11:19 UTC 2017
Operating System Details
Distributor ID:	Ubuntu
Description:	Ubuntu 14.04.5 LTS
Release:	14.04
Codename:	trusty
Cookbooks Version
7c2c6a6 https://github.com/travis-ci/travis-cookbooks/tree/7c2c6a6
git version
git version 2.15.1
bash version
GNU bash, version 4.3.11(1)-release (x86_64-pc-linux-gnu)
gcc version
gcc (Ubuntu 4.8.4-2ubuntu1~14.04.3) 4.8.4
Copyright (C) 2013 Free Software Foundation, Inc.
This is free software; see the source for copying conditions.  There is NO
warranty; not even for MERCHANTABILITY or FITNESS FOR A PARTICULAR PURPOSE.
docker version
Client:
 Version:      17.09.0-ce
 API version:  1.32
 Go version:   go1.8.3
 Git commit:   afdb6d4
 Built:        Tue Sep 26 22:39:28 2017
 OS/Arch:      linux/amd64
clang version
clang version 5.0.0 (tags/RELEASE_500/final)
Target: x86_64-unknown-linux-gnu
Thread model: posix
InstalledDir: /usr/local/clang-5.0.0/bin
jq version
jq-1.5
bats version
Bats 0.4.0
shellcheck version
0.4.6
shfmt version
v2.0.0
ccache version
ccache version 3.1.9
Copyright (C) 2002-2007 Andrew Tridgell
Copyright (C) 2009-2011 Joel Rosdahl
This program is free software; you can redistribute it and/or modify it under
the terms of the GNU General Public License as published by the Free Software
Foundation; either version 3 of the License, or (at your option) any later
version.
cmake version
cmake version 3.9.2
CMake suite maintained and supported by Kitware (kitware.com/cmake).
heroku version
heroku-cli/6.14.39-addc925 (linux-x64) node-v9.2.0
imagemagick version
Version: ImageMagick 6.7.7-10 2017-07-31 Q16 http://www.imagemagick.org
md5deep version
4.2
mercurial version
Mercurial Distributed SCM (version 4.2.2)
(see https://mercurial-scm.org for more information)
Copyright (C) 2005-2017 Matt Mackall and others
This is free software; see the source for copying conditions. There is NO
warranty; not even for MERCHANTABILITY or FITNESS FOR A PARTICULAR PURPOSE.
mysql version
mysql  Ver 14.14 Distrib 5.6.33, for debian-linux-gnu (x86_64) using  EditLine wrapper
openssl version
OpenSSL 1.0.1f 6 Jan 2014
packer version
Packer v1.0.2
Your version of Packer is out of date! The latest version
is 1.1.2. You can update by downloading from www.packer.io
postgresql client version
psql (PostgreSQL) 9.6.6
ragel version
Ragel State Machine Compiler version 6.8 Feb 2013
Copyright (c) 2001-2009 by Adrian Thurston
subversion version
svn, version 1.8.8 (r1568071)
   compiled Aug 10 2017, 17:20:39 on x86_64-pc-linux-gnu
Copyright (C) 2013 The Apache Software Foundation.
This software consists of contributions made by many people;
see the NOTICE file for more information.
Subversion is open source software, see http://subversion.apache.org/
The following repository access (RA) modules are available:
* ra_svn : Module for accessing a repository using the svn network protocol.
  - with Cyrus SASL authentication
  - handles 'svn' scheme
* ra_local : Module for accessing a repository on local disk.
  - handles 'file' scheme
* ra_serf : Module for accessing a repository via WebDAV protocol using serf.
  - using serf 1.3.3
  - handles 'http' scheme
  - handles 'https' scheme
sudo version
Sudo version 1.8.9p5
Configure options: --prefix=/usr -v --with-all-insults --with-pam --with-fqdn --with-logging=syslog --with-logfac=authpriv --with-env-editor --with-editor=/usr/bin/editor --with-timeout=15 --with-password-timeout=0 --with-passprompt=[sudo] password for %p:  --without-lecture --with-tty-tickets --disable-root-mailer --enable-admin-flag --with-sendmail=/usr/sbin/sendmail --with-timedir=/var/lib/sudo --mandir=/usr/share/man --libexecdir=/usr/lib/sudo --with-sssd --with-sssd-lib=/usr/lib/x86_64-linux-gnu --with-selinux
Sudoers policy plugin version 1.8.9p5
Sudoers file grammar version 43
Sudoers path: /etc/sudoers
Authentication methods: 'pam'
Syslog facility if syslog is being used for logging: authpriv
Syslog priority to use when user authenticates successfully: notice
Syslog priority to use when user authenticates unsuccessfully: alert
Send mail if the user is not in sudoers
Use a separate timestamp for each user/tty combo
Lecture user the first time they run sudo
Root may run sudo
Allow some information gathering to give useful error messages
Require fully-qualified hostnames in the sudoers file
Visudo will honor the EDITOR environment variable
Set the LOGNAME and USER environment variables
Length at which to wrap log file lines (0 for no wrap): 80
Authentication timestamp timeout: 15.0 minutes
Password prompt timeout: 0.0 minutes
Number of tries to enter a password: 3
Umask to use or 0777 to use user's: 022
Path to mail program: /usr/sbin/sendmail
Flags for mail program: -t
Address to send mail to: root
Subject line for mail messages: *** SECURITY information for %h ***
Incorrect password message: Sorry, try again.
Path to authentication timestamp dir: /var/lib/sudo
Default password prompt: [sudo] password for %p: 
Default user to run commands as: root
Value to override user's $PATH with: /usr/local/sbin:/usr/local/bin:/usr/sbin:/usr/bin:/sbin:/bin:/snap/bin
Path to the editor for use by visudo: /usr/bin/editor
When to require a password for 'list' pseudocommand: any
When to require a password for 'verify' pseudocommand: all
File descriptors >= 3 will be closed before executing a command
Environment variables to check for sanity:
	TZ
	TERM
	LINGUAS
	LC_*
	LANGUAGE
	LANG
	COLORTERM
Environment variables to remove:
	RUBYOPT
	RUBYLIB
	PYTHONUSERBASE
	PYTHONINSPECT
	PYTHONPATH
	PYTHONHOME
	TMPPREFIX
	ZDOTDIR
	READNULLCMD
	NULLCMD
	FPATH
	PERL5DB
	PERL5OPT
	PERL5LIB
	PERLLIB
	PERLIO_DEBUG 
	JAVA_TOOL_OPTIONS
	SHELLOPTS
	GLOBIGNORE
	PS4
	BASH_ENV
	ENV
	TERMCAP
	TERMPATH
	TERMINFO_DIRS
	TERMINFO
	_RLD*
	LD_*
	PATH_LOCALE
	NLSPATH
	HOSTALIASES
	RES_OPTIONS
	LOCALDOMAIN
	CDPATH
	IFS
Environment variables to preserve:
	JAVA_HOME
	TRAVIS
	CI
	DEBIAN_FRONTEND
	XAUTHORIZATION
	XAUTHORITY
	PS2
	PS1
	PATH
	LS_COLORS
	KRB5CCNAME
	HOSTNAME
	HOME
	DISPLAY
	COLORS
Locale to use while parsing sudoers: C
Directory in which to store input/output logs: /var/log/sudo-io
File in which to store the input/output log: %{seq}
Add an entry to the utmp/utmpx file when allocating a pty
PAM service name to use
PAM service name to use for login shells
Create a new PAM session for the command to run in
Maximum I/O log sequence number: 0
Local IP address and netmask pairs:
	172.17.0.2/255.255.0.0
Sudoers I/O plugin version 1.8.9p5
gzip version
gzip 1.6
Copyright (C) 2007, 2010, 2011 Free Software Foundation, Inc.
Copyright (C) 1993 Jean-loup Gailly.
This is free software.  You may redistribute copies of it under the terms of
the GNU General Public License <http://www.gnu.org/licenses/gpl.html>.
There is NO WARRANTY, to the extent permitted by law.
Written by Jean-loup Gailly.
zip version
Copyright (c) 1990-2008 Info-ZIP - Type 'zip "-L"' for software license.
This is Zip 3.0 (July 5th 2008), by Info-ZIP.
Currently maintained by E. Gordon.  Please send bug reports to
the authors using the web page at www.info-zip.org; see README for details.
Latest sources and executables are at ftp://ftp.info-zip.org/pub/infozip,
as of above date; see http://www.info-zip.org/ for other sites.
Compiled with gcc 4.8.2 for Unix (Linux ELF) on Oct 21 2013.
Zip special compilation options:
	USE_EF_UT_TIME       (store Universal Time)
	BZIP2_SUPPORT        (bzip2 library version 1.0.6, 6-Sept-2010)
	    bzip2 code and library copyright (c) Julian R Seward
	    (See the bzip2 license for terms of use)
	SYMLINK_SUPPORT      (symbolic links supported)
	LARGE_FILE_SUPPORT   (can read and write large files on file system)
	ZIP64_SUPPORT        (use Zip64 to store large files in archives)
	UNICODE_SUPPORT      (store and read UTF-8 Unicode paths)
	STORE_UNIX_UIDs_GIDs (store UID/GID sizes/values using new extra field)
	UIDGID_NOT_16BIT     (old Unix 16-bit UID/GID extra field not used)
	[encryption, version 2.91 of 05 Jan 2007] (modified for Zip 3)
Encryption notice:
	The encryption code of this program is not copyrighted and is
	put in the public domain.  It was originally written in Europe
	and, to the best of our knowledge, can be freely distributed
	in both source and object forms from any country, including
	the USA under License Exception TSU of the U.S. Export
	Administration Regulations (section 740.13(e)) of 6 June 2002.
Zip environment options:
             ZIP:  [none]
          ZIPOPT:  [none]
vim version
VIM - Vi IMproved 7.4 (2013 Aug 10, compiled Nov 24 2016 16:43:18)
Included patches: 1-52
Extra patches: 8.0.0056
Modified by pkg-vim-maintainers@lists.alioth.debian.org
Compiled by buildd@
Huge version without GUI.  Features included (+) or not (-):
+acl             +farsi           +mouse_netterm   +syntax
+arabic          +file_in_path    +mouse_sgr       +tag_binary
+autocmd         +find_in_path    -mouse_sysmouse  +tag_old_static
-balloon_eval    +float           +mouse_urxvt     -tag_any_white
-browse          +folding         +mouse_xterm     -tcl
++builtin_terms  -footer          +multi_byte      +terminfo
+byte_offset     +fork()          +multi_lang      +termresponse
+cindent         +gettext         -mzscheme        +textobjects
-clientserver    -hangul_input    +netbeans_intg   +title
-clipboard       +iconv           +path_extra      -toolbar
+cmdline_compl   +insert_expand   -perl            +user_commands
+cmdline_hist    +jumplist        +persistent_undo +vertsplit
+cmdline_info    +keymap          +postscript      +virtualedit
+comments        +langmap         +printer         +visual
+conceal         +libcall         +profile         +visualextra
+cryptv          +linebreak       +python          +viminfo
+cscope          +lispindent      -python3         +vreplace
+cursorbind      +listcmds        +quickfix        +wildignore
+cursorshape     +localmap        +reltime         +wildmenu
+dialog_con      -lua             +rightleft       +windows
+diff            +menu            -ruby            +writebackup
+digraphs        +mksession       +scrollbind      -X11
-dnd             +modify_fname    +signs           -xfontset
-ebcdic          +mouse           +smartindent     -xim
+emacs_tags      -mouseshape      -sniff           -xsmp
+eval            +mouse_dec       +startuptime     -xterm_clipboard
+ex_extra        +mouse_gpm       +statusline      -xterm_save
+extra_search    -mouse_jsbterm   -sun_workshop    -xpm
   system vimrc file: "$VIM/vimrc"
     user vimrc file: "$HOME/.vimrc"
 2nd user vimrc file: "~/.vim/vimrc"
      user exrc file: "$HOME/.exrc"
  fall-back for $VIM: "/usr/share/vim"
Compilation: gcc -c -I. -Iproto -DHAVE_CONFIG_H     -g -O2 -fstack-protector --param=ssp-buffer-size=4 -Wformat -Werror=format-security -U_FORTIFY_SOURCE -D_FORTIFY_SOURCE=1      
Linking: gcc   -Wl,-Bsymbolic-functions -Wl,-z,relro -Wl,--as-needed -o vim        -lm -ltinfo -lnsl  -lselinux  -lacl -lattr -lgpm -ldl    -L/usr/lib/python2.7/config-x86_64-linux-gnu -lpython2.7 -lpthread -ldl -lutil -lm -Xlinker -export-dynamic -Wl,-O1 -Wl,-Bsymbolic-functions      
iptables version
iptables v1.4.21
curl version
curl 7.35.0 (x86_64-pc-linux-gnu) libcurl/7.35.0 OpenSSL/1.0.1f zlib/1.2.8 libidn/1.28 librtmp/2.3
wget version
GNU Wget 1.15 built on linux-gnu.
rsync version
rsync  version 3.1.0  protocol version 31
gimme version
v1.2.0
nvm version
0.33.6
perlbrew version
/home/travis/perl5/perlbrew/bin/perlbrew  - App::perlbrew/0.80
phpenv version
rbenv 1.1.1-25-g6aa70b6
rvm version
rvm 1.29.3 (latest) by Michal Papis, Piotr Kuczynski, Wayne E. Seguin [https://rvm.io]
default ruby version
ruby 2.4.1p111 (2017-03-22 revision 58053) [x86_64-linux]
CouchDB version
couchdb 1.6.1
ElasticSearch version
5.5.0
Installed Firefox version
firefox 56.0.2
MongoDB version
MongoDB 3.4.10
PhantomJS version
2.1.1
Pre-installed PostgreSQL versions
9.2.24
9.3.20
9.4.15
9.5.10
9.6.6
RabbitMQ Version
3.6.14
Redis version
redis-server 4.0.6
riak version
2.2.3
Pre-installed Go versions
1.7.4
ant version
Apache Ant(TM) version 1.9.3 compiled on April 8 2014
mvn version
Apache Maven 3.5.2 (138edd61fd100ec658bfa2d307c43b76940a5d7d; 2017-10-18T07:58:13Z)
Maven home: /usr/local/maven-3.5.2
Java version: 1.8.0_151, vendor: Oracle Corporation
Java home: /usr/lib/jvm/java-8-oracle/jre
Default locale: en_US, platform encoding: UTF-8
OS name: "linux", version: "4.4.0-101-generic", arch: "amd64", family: "unix"
gradle version
------------------------------------------------------------
Gradle 4.0.1
------------------------------------------------------------
Build time:   2017-07-07 14:02:41 UTC
Revision:     38e5dc0f772daecca1d2681885d3d85414eb6826
Groovy:       2.4.11
Ant:          Apache Ant(TM) version 1.9.6 compiled on June 29 2015
JVM:          1.8.0_151 (Oracle Corporation 25.151-b12)
OS:           Linux 4.4.0-101-generic amd64
lein version
Leiningen 2.8.1 on Java 1.8.0_151 Java HotSpot(TM) 64-Bit Server VM
Pre-installed Node.js versions
v4.8.6
v6.12.0
v6.12.1
v8.9
v8.9.1
phpenv versions
  system
  5.6
* 5.6.32 (set by /home/travis/.phpenv/version)
  7.0
  7.0.25
  7.1
  7.1.11
  hhvm
  hhvm-stable
composer --version
Composer version 1.5.2 2017-09-11 16:59:25
Pre-installed Ruby versions
ruby-2.2.7
ruby-2.3.4
ruby-2.4.1
travis_fold:end:system_info

Network availability confirmed.
Running apt-get update by default has been disabled.
You can opt into running apt-get update by setting this in your .travis.yml file:
  addons:
    apt:
      update: true
$ jdk_switcher use oraclejdk8
Switching to Oracle JDK8 (java-8-oracle), JAVA_HOME will be set to /usr/lib/jvm/java-8-oracle
travis_fold:start:git.checkout
travis_time:start:328cbf78
$ git clone --depth=50 https://github.com/spring-cloud/spring-cloud-aws.git spring-cloud/spring-cloud-aws
Cloning into 'spring-cloud/spring-cloud-aws'...
remote: Counting objects: 5599, done.
remote: Compressing objects:   0% (1/2453)   
remote: Compressing objects:   1% (25/2453)   
remote: Compressing objects:   2% (50/2453)   
remote: Compressing objects:   3% (74/2453)   
remote: Compressing objects:   4% (99/2453)   
remote: Compressing objects:   5% (123/2453)   
remote: Compressing objects:   6% (148/2453)   
remote: Compressing objects:   7% (172/2453)   
remote: Compressing objects:   8% (197/2453)   
remote: Compressing objects:   9% (221/2453)   
remote: Compressing objects:  10% (246/2453)   
remote: Compressing objects:  11% (270/2453)   
remote: Compressing objects:  12% (295/2453)   
remote: Compressing objects:  13% (319/2453)   
remote: Compressing objects:  14% (344/2453)   
remote: Compressing objects:  15% (368/2453)   
remote: Compressing objects:  16% (393/2453)   
remote: Compressing objects:  17% (418/2453)   
remote: Compressing objects:  18% (442/2453)   
remote: Compressing objects:  19% (467/2453)   
remote: Compressing objects:  20% (491/2453)   
remote: Compressing objects:  21% (516/2453)   
remote: Compressing objects:  22% (540/2453)   
remote: Compressing objects:  23% (565/2453)   
remote: Compressing objects:  24% (589/2453)   
remote: Compressing objects:  25% (614/2453)   
remote: Compressing objects:  26% (638/2453)   
remote: Compressing objects:  27% (663/2453)   
remote: Compressing objects:  28% (687/2453)   
remote: Compressing objects:  29% (712/2453)   
remote: Compressing objects:  30% (736/2453)   
remote: Compressing objects:  31% (761/2453)   
remote: Compressing objects:  32% (785/2453)   
remote: Compressing objects:  33% (810/2453)   
remote: Compressing objects:  34% (835/2453)   
remote: Compressing objects:  35% (859/2453)   
remote: Compressing objects:  36% (884/2453)   
remote: Compressing objects:  37% (908/2453)   
remote: Compressing objects:  38% (933/2453)   
remote: Compressing objects:  39% (957/2453)   
remote: Compressing objects:  40% (982/2453)   
remote: Compressing objects:  41% (1006/2453)   
remote: Compressing objects:  42% (1031/2453)   
remote: Compressing objects:  43% (1055/2453)   
remote: Compressing objects:  44% (1080/2453)   
remote: Compressing objects:  45% (1104/2453)   
remote: Compressing objects:  46% (1129/2453)   
remote: Compressing objects:  47% (1153/2453)   
remote: Compressing objects:  48% (1178/2453)   
remote: Compressing objects:  49% (1202/2453)   
remote: Compressing objects:  50% (1227/2453)   
remote: Compressing objects:  51% (1252/2453)   
remote: Compressing objects:  52% (1276/2453)   
remote: Compressing objects:  53% (1301/2453)   
remote: Compressing objects:  54% (1325/2453)   
remote: Compressing objects:  55% (1350/2453)   
remote: Compressing objects:  56% (1374/2453)   
remote: Compressing objects:  57% (1399/2453)   
remote: Compressing objects:  58% (1423/2453)   
remote: Compressing objects:  59% (1448/2453)   
remote: Compressing objects:  60% (1472/2453)   
remote: Compressing objects:  61% (1497/2453)   
remote: Compressing objects:  62% (1521/2453)   
remote: Compressing objects:  63% (1546/2453)   
remote: Compressing objects:  64% (1570/2453)   
remote: Compressing objects:  65% (1595/2453)   
remote: Compressing objects:  66% (1619/2453)   
remote: Compressing objects:  67% (1644/2453)   
remote: Compressing objects:  68% (1669/2453)   
remote: Compressing objects:  69% (1693/2453)   
remote: Compressing objects:  70% (1718/2453)   
remote: Compressing objects:  71% (1742/2453)   
remote: Compressing objects:  72% (1767/2453)   
remote: Compressing objects:  73% (1791/2453)   
remote: Compressing objects:  74% (1816/2453)   
remote: Compressing objects:  75% (1840/2453)   
remote: Compressing objects:  76% (1865/2453)   
remote: Compressing objects:  77% (1889/2453)   
remote: Compressing objects:  78% (1914/2453)   
remote: Compressing objects:  79% (1938/2453)   
remote: Compressing objects:  80% (1963/2453)   
remote: Compressing objects:  81% (1987/2453)   
remote: Compressing objects:  82% (2012/2453)   
remote: Compressing objects:  83% (2036/2453)   
remote: Compressing objects:  84% (2061/2453)   
remote: Compressing objects:  85% (2086/2453)   
remote: Compressing objects:  86% (2110/2453)   
remote: Compressing objects:  87% (2135/2453)   
remote: Compressing objects:  88% (2159/2453)   
remote: Compressing objects:  89% (2184/2453)   
remote: Compressing objects:  90% (2208/2453)   
remote: Compressing objects:  91% (2233/2453)   
remote: Compressing objects:  92% (2257/2453)   
remote: Compressing objects:  93% (2282/2453)   
remote: Compressing objects:  94% (2306/2453)   
remote: Compressing objects:  95% (2331/2453)   
remote: Compressing objects:  96% (2355/2453)   
remote: Compressing objects:  97% (2380/2453)   
remote: Compressing objects:  98% (2404/2453)   
remote: Compressing objects:  99% (2429/2453)   
remote: Compressing objects: 100% (2453/2453)   
remote: Compressing objects: 100% (2453/2453), done.
Receiving objects:   0% (1/5599)   
Receiving objects:   1% (56/5599)   
Receiving objects:   2% (112/5599)   
Receiving objects:   3% (168/5599)   
Receiving objects:   4% (224/5599)   
Receiving objects:   5% (280/5599)   
Receiving objects:   6% (336/5599)   
Receiving objects:   7% (392/5599)   
Receiving objects:   8% (448/5599)   
Receiving objects:   9% (504/5599)   
Receiving objects:  10% (560/5599)   
Receiving objects:  11% (616/5599)   
Receiving objects:  12% (672/5599)   
Receiving objects:  13% (728/5599)   
Receiving objects:  14% (784/5599)   
Receiving objects:  15% (840/5599)   
Receiving objects:  16% (896/5599)   
Receiving objects:  17% (952/5599)   
Receiving objects:  18% (1008/5599)   
Receiving objects:  19% (1064/5599)   
Receiving objects:  20% (1120/5599)   
Receiving objects:  21% (1176/5599)   
Receiving objects:  22% (1232/5599)   
Receiving objects:  23% (1288/5599)   
Receiving objects:  24% (1344/5599)   
Receiving objects:  25% (1400/5599)   
Receiving objects:  26% (1456/5599)   
Receiving objects:  27% (1512/5599)   
Receiving objects:  28% (1568/5599)   
Receiving objects:  29% (1624/5599)   
Receiving objects:  30% (1680/5599)   
Receiving objects:  31% (1736/5599)   
Receiving objects:  32% (1792/5599)   
Receiving objects:  33% (1848/5599)   
Receiving objects:  34% (1904/5599)   
Receiving objects:  35% (1960/5599)   
Receiving objects:  36% (2016/5599)   
Receiving objects:  37% (2072/5599)   
Receiving objects:  38% (2128/5599)   
Receiving objects:  39% (2184/5599)   
Receiving objects:  40% (2240/5599)   
Receiving objects:  41% (2296/5599)   
Receiving objects:  42% (2352/5599)   
Receiving objects:  43% (2408/5599)   
Receiving objects:  44% (2464/5599)   
Receiving objects:  45% (2520/5599)   
Receiving objects:  46% (2576/5599)   
Receiving objects:  47% (2632/5599)   
Receiving objects:  48% (2688/5599)   
Receiving objects:  49% (2744/5599)   
Receiving objects:  50% (2800/5599)   
Receiving objects:  51% (2856/5599)   
Receiving objects:  52% (2912/5599)   
Receiving objects:  53% (2968/5599)   
Receiving objects:  54% (3024/5599)   
Receiving objects:  55% (3080/5599)   
Receiving objects:  56% (3136/5599)   
Receiving objects:  57% (3192/5599)   
Receiving objects:  58% (3248/5599)   
Receiving objects:  59% (3304/5599)   
Receiving objects:  60% (3360/5599)   
Receiving objects:  61% (3416/5599)   
Receiving objects:  62% (3472/5599)   
Receiving objects:  63% (3528/5599)   
Receiving objects:  64% (3584/5599)   
Receiving objects:  65% (3640/5599)   
Receiving objects:  66% (3696/5599)   
Receiving objects:  67% (3752/5599)   
Receiving objects:  68% (3808/5599)   
Receiving objects:  69% (3864/5599)   
Receiving objects:  70% (3920/5599)   
Receiving objects:  71% (3976/5599)   
Receiving objects:  72% (4032/5599)   
Receiving objects:  73% (4088/5599)   
Receiving objects:  74% (4144/5599)   
Receiving objects:  75% (4200/5599)   
Receiving objects:  76% (4256/5599)   
Receiving objects:  77% (4312/5599)   
Receiving objects:  78% (4368/5599)   
Receiving objects:  79% (4424/5599)   
Receiving objects:  80% (4480/5599)   
Receiving objects:  81% (4536/5599)   
Receiving objects:  82% (4592/5599)   
Receiving objects:  83% (4648/5599)   
Receiving objects:  84% (4704/5599)   
Receiving objects:  85% (4760/5599), 11.94 MiB | 23.87 MiB/s   
Receiving objects:  86% (4816/5599), 11.94 MiB | 23.87 MiB/s   
Receiving objects:  87% (4872/5599), 11.94 MiB | 23.87 MiB/s   
Receiving objects:  88% (4928/5599), 11.94 MiB | 23.87 MiB/s   
Receiving objects:  89% (4984/5599), 11.94 MiB | 23.87 MiB/s   
Receiving objects:  90% (5040/5599), 11.94 MiB | 23.87 MiB/s   
Receiving objects:  91% (5096/5599), 11.94 MiB | 23.87 MiB/s   
Receiving objects:  92% (5152/5599), 11.94 MiB | 23.87 MiB/s   
Receiving objects:  93% (5208/5599), 11.94 MiB | 23.87 MiB/s   
Receiving objects:  94% (5264/5599), 11.94 MiB | 23.87 MiB/s   
Receiving objects:  95% (5320/5599), 11.94 MiB | 23.87 MiB/s   
remote: Total 5599 (delta 2139), reused 4892 (delta 1609), pack-reused 0
Receiving objects:  96% (5376/5599), 11.94 MiB | 23.87 MiB/s   
Receiving objects:  97% (5432/5599), 11.94 MiB | 23.87 MiB/s   
Receiving objects:  98% (5488/5599), 11.94 MiB | 23.87 MiB/s   
Receiving objects:  99% (5544/5599), 11.94 MiB | 23.87 MiB/s   
Receiving objects: 100% (5599/5599), 11.94 MiB | 23.87 MiB/s   
Receiving objects: 100% (5599/5599), 13.33 MiB | 24.08 MiB/s, done.
Resolving deltas:   0% (0/2139)   
Resolving deltas:   1% (27/2139)   
Resolving deltas:   2% (44/2139)   
Resolving deltas:   3% (65/2139)   
Resolving deltas:   4% (89/2139)   
Resolving deltas:   5% (110/2139)   
Resolving deltas:   6% (132/2139)   
Resolving deltas:   7% (157/2139)   
Resolving deltas:   8% (173/2139)   
Resolving deltas:   9% (201/2139)   
Resolving deltas:  10% (218/2139)   
Resolving deltas:  11% (236/2139)   
Resolving deltas:  12% (257/2139)   
Resolving deltas:  13% (279/2139)   
Resolving deltas:  17% (366/2139)   
Resolving deltas:  18% (390/2139)   
Resolving deltas:  19% (408/2139)   
Resolving deltas:  20% (428/2139)   
Resolving deltas:  21% (451/2139)   
Resolving deltas:  22% (476/2139)   
Resolving deltas:  23% (493/2139)   
Resolving deltas:  24% (524/2139)   
Resolving deltas:  25% (536/2139)   
Resolving deltas:  26% (558/2139)   
Resolving deltas:  27% (581/2139)   
Resolving deltas:  28% (600/2139)   
Resolving deltas:  29% (622/2139)   
Resolving deltas:  37% (809/2139)   
Resolving deltas:  38% (814/2139)   
Resolving deltas:  40% (870/2139)   
Resolving deltas:  43% (934/2139)   
Resolving deltas:  44% (958/2139)   
Resolving deltas:  45% (975/2139)   
Resolving deltas:  46% (986/2139)   
Resolving deltas:  47% (1010/2139)   
Resolving deltas:  48% (1028/2139)   
Resolving deltas:  49% (1052/2139)   
Resolving deltas:  50% (1074/2139)   
Resolving deltas:  51% (1095/2139)   
Resolving deltas:  52% (1120/2139)   
Resolving deltas:  53% (1134/2139)   
Resolving deltas:  54% (1174/2139)   
Resolving deltas:  55% (1181/2139)   
Resolving deltas:  56% (1205/2139)   
Resolving deltas:  57% (1224/2139)   
Resolving deltas:  58% (1242/2139)   
Resolving deltas:  59% (1265/2139)   
Resolving deltas:  60% (1285/2139)   
Resolving deltas:  61% (1307/2139)   
Resolving deltas:  62% (1330/2139)   
Resolving deltas:  64% (1379/2139)   
Resolving deltas:  65% (1393/2139)   
Resolving deltas:  66% (1418/2139)   
Resolving deltas:  67% (1448/2139)   
Resolving deltas:  68% (1455/2139)   
Resolving deltas:  69% (1488/2139)   
Resolving deltas:  70% (1498/2139)   
Resolving deltas:  71% (1524/2139)   
Resolving deltas:  72% (1548/2139)   
Resolving deltas:  73% (1565/2139)   
Resolving deltas:  74% (1595/2139)   
Resolving deltas:  75% (1611/2139)   
Resolving deltas:  76% (1636/2139)   
Resolving deltas:  77% (1648/2139)   
Resolving deltas:  78% (1670/2139)   
Resolving deltas:  79% (1692/2139)   
Resolving deltas:  80% (1713/2139)   
Resolving deltas:  81% (1733/2139)   
Resolving deltas:  82% (1759/2139)   
Resolving deltas:  83% (1776/2139)   
Resolving deltas:  84% (1805/2139)   
Resolving deltas:  85% (1820/2139)   
Resolving deltas:  86% (1840/2139)   
Resolving deltas:  87% (1861/2139)   
Resolving deltas:  88% (1886/2139)   
Resolving deltas:  89% (1904/2139)   
Resolving deltas:  90% (1938/2139)   
Resolving deltas:  91% (1947/2139)   
Resolving deltas:  92% (1978/2139)   
Resolving deltas:  93% (1991/2139)   
Resolving deltas:  95% (2039/2139)   
Resolving deltas:  96% (2055/2139)   
Resolving deltas:  97% (2077/2139)   
Resolving deltas:  98% (2100/2139)   
Resolving deltas:  99% (2118/2139)   
Resolving deltas: 100% (2139/2139)   
Resolving deltas: 100% (2139/2139), done.
travis_time:end:328cbf78:start=1526323696709303249,finish=1526323698077642516,duration=1368339267
$ cd spring-cloud/spring-cloud-aws
travis_time:start:09bc3104
$ git fetch origin +refs/pull/325/merge:
remote: Counting objects: 15, done.
remote: Compressing objects:  14% (1/7)   
remote: Compressing objects:  28% (2/7)   
remote: Compressing objects:  42% (3/7)   
remote: Compressing objects:  57% (4/7)   
remote: Compressing objects:  71% (5/7)   
remote: Compressing objects:  85% (6/7)   
remote: Compressing objects: 100% (7/7)   
remote: Compressing objects: 100% (7/7), done.
remote: Total 15 (delta 4), reused 13 (delta 3), pack-reused 0
Unpacking objects:   6% (1/15)   
Unpacking objects:  13% (2/15)   
Unpacking objects:  20% (3/15)   
Unpacking objects:  26% (4/15)   
Unpacking objects:  33% (5/15)   
Unpacking objects:  40% (6/15)   
Unpacking objects:  46% (7/15)   
Unpacking objects:  53% (8/15)   
Unpacking objects:  60% (9/15)   
Unpacking objects:  66% (10/15)   
Unpacking objects:  73% (11/15)   
Unpacking objects:  80% (12/15)   
Unpacking objects:  86% (13/15)   
Unpacking objects:  93% (14/15)   
Unpacking objects: 100% (15/15)   
Unpacking objects: 100% (15/15), done.
From https://github.com/spring-cloud/spring-cloud-aws
 * branch            refs/pull/325/merge -> FETCH_HEAD
travis_time:end:09bc3104:start=1526323698083516080,finish=1526323698339867467,duration=256351387
$ git checkout -qf FETCH_HEAD
travis_fold:end:git.checkout

Setting environment variables from .travis.yml
$ export GIT_NAME="Dave Syer"
$ export GIT_EMAIL=dsyer@pivotal.io
$ export CI_DEPLOY_USERNAME=buildmaster
$ export FEATURE_BRANCH=$(echo ${TRAVIS_BRANCH} | grep -q "^.*/.*$" && echo true || echo false)
$ export SPRING_CLOUD_BUILD=$(echo ${TRAVIS_REPO_SLUG} | grep -q "^spring-cloud/.*$" && echo true || echo false)
$ export MVN_GOAL=$([ "${TRAVIS_PULL_REQUEST}" == "false" -a "${TRAVIS_TAG}" == "" -a "${FEATURE_BRANCH}" == "false" -a "${SPRING_CLOUD_BUILD}" == "true" ] && echo verify || echo install)
$ export VERSION=$(mvn validate | grep Building | head -1 | sed -e 's/.* //')
Picked up _JAVA_OPTIONS: -Xmx2048m -Xms512m
$ export MILESTONE=$(echo ${VERSION} | egrep 'M|RC' && echo true || echo false)
$ export MVN_PROFILE=$([ "${MILESTONE}" == "true" ] && echo -P milestone)
$ export MAVEN_SKIP_RC=true
$ export MAVEN_OPTS="-Xmx2g -XX:MaxPermSize=256M"
$ export PATH=$JAVA_HOME/bin:$PATH
travis_fold:start:cache.1
Setting up build cache
$ export CASHER_DIR=$HOME/.casher
travis_time:start:00b9148e
$ Installing caching utilities
travis_time:end:00b9148e:start=1526323724714657681,finish=1526323724744184155,duration=29526474
travis_time:start:0a9b57f0

travis_time:end:0a9b57f0:start=1526323724751698217,finish=1526323724757697808,duration=5999591
travis_time:start:2ab7a140
attempting to download cache archive
fetching PR.325/cache-linux-trusty-e3b0c44298fc1c149afbf4c8996fb92427ae41e4649b934ca495991b7852b855--jdk-oraclejdk8.tgz
fetching PR.325/cache--jdk-oraclejdk8.tgz
fetching master/cache-linux-trusty-e3b0c44298fc1c149afbf4c8996fb92427ae41e4649b934ca495991b7852b855--jdk-oraclejdk8.tgz
found cache
travis_time:end:2ab7a140:start=1526323724764234855,finish=1526323743403531045,duration=18639296190
travis_time:start:2d15694e

travis_time:end:2d15694e:start=1526323743411530594,finish=1526323743418631256,duration=7100662
travis_time:start:17e82dfe
adding /home/travis/.m2 to cache
travis_time:end:17e82dfe:start=1526323743426690770,finish=1526323754953766593,duration=11527075823
travis_fold:end:cache.1
$ java -Xmx32m -version
Picked up _JAVA_OPTIONS: -Xmx2048m -Xms512m
java version "1.8.0_151"
Java(TM) SE Runtime Environment (build 1.8.0_151-b12)
Java HotSpot(TM) 64-Bit Server VM (build 25.151-b12, mixed mode)
$ javac -J-Xmx32m -version
Picked up _JAVA_OPTIONS: -Xmx2048m -Xms512m
javac 1.8.0_151
travis_fold:start:before_install.1
travis_time:start:0001bd9b
$ git config user.name "$GIT_NAME"
travis_time:end:0001bd9b:start=1526323755359967739,finish=1526323755369805402,duration=9837663
travis_fold:end:before_install.1
travis_fold:start:before_install.2
travis_time:start:21e7417c
$ git config user.email "$GIT_EMAIL"
travis_time:end:21e7417c:start=1526323755378199339,finish=1526323755387290737,duration=9091398
travis_fold:end:before_install.2
travis_fold:start:before_install.3
travis_time:start:2c66b21f
$ git config credential.helper "store --file=.git/credentials"
travis_time:end:2c66b21f:start=1526323755395788708,finish=1526323755404993103,duration=9204395
travis_fold:end:before_install.3
travis_fold:start:before_install.4
travis_time:start:26021c82
$ echo "https://$GH_TOKEN:@github.com" > .git/credentials
travis_time:end:26021c82:start=1526323755413420047,finish=1526323755420130241,duration=6710194
travis_fold:end:before_install.4
travis_fold:start:before_install.5
travis_time:start:10de73b8
$ gem install asciidoctor
Fetching: asciidoctor-1.5.7.1.gem
Fetching: asciidoctor-1.5.7.1.gem (  1%)
Fetching: asciidoctor-1.5.7.1.gem (  2%)
Fetching: asciidoctor-1.5.7.1.gem (  3%)
Fetching: asciidoctor-1.5.7.1.gem (  4%)
Fetching: asciidoctor-1.5.7.1.gem (  5%)
Fetching: asciidoctor-1.5.7.1.gem (  6%)
Fetching: asciidoctor-1.5.7.1.gem (  7%)
Fetching: asciidoctor-1.5.7.1.gem (  8%)
Fetching: asciidoctor-1.5.7.1.gem ( 12%)
Fetching: asciidoctor-1.5.7.1.gem ( 16%)
Fetching: asciidoctor-1.5.7.1.gem ( 20%)
Fetching: asciidoctor-1.5.7.1.gem ( 24%)
Fetching: asciidoctor-1.5.7.1.gem ( 29%)
Fetching: asciidoctor-1.5.7.1.gem ( 33%)
Fetching: asciidoctor-1.5.7.1.gem ( 37%)
Fetching: asciidoctor-1.5.7.1.gem ( 41%)
Fetching: asciidoctor-1.5.7.1.gem ( 45%)
Fetching: asciidoctor-1.5.7.1.gem ( 49%)
Fetching: asciidoctor-1.5.7.1.gem ( 53%)
Fetching: asciidoctor-1.5.7.1.gem ( 57%)
Fetching: asciidoctor-1.5.7.1.gem ( 61%)
Fetching: asciidoctor-1.5.7.1.gem ( 65%)
Fetching: asciidoctor-1.5.7.1.gem ( 69%)
Fetching: asciidoctor-1.5.7.1.gem ( 73%)
Fetching: asciidoctor-1.5.7.1.gem ( 77%)
Fetching: asciidoctor-1.5.7.1.gem ( 81%)
Fetching: asciidoctor-1.5.7.1.gem ( 85%)
Fetching: asciidoctor-1.5.7.1.gem ( 89%)
Fetching: asciidoctor-1.5.7.1.gem ( 93%)
Fetching: asciidoctor-1.5.7.1.gem ( 97%)
Fetching: asciidoctor-1.5.7.1.gem (100%)
Fetching: asciidoctor-1.5.7.1.gem (100%)
Successfully installed asciidoctor-1.5.7.1
1 gem installed
travis_time:end:10de73b8:start=1526323755428240921,finish=1526323756174714159,duration=746473238
travis_fold:end:before_install.5
travis_fold:start:install.1
travis_time:start:0cb580b6
$ ./mvnw install -P docs -q -U -DskipTests=true -Dmaven.test.redirectTestOutputToFile=true
Running version check
The found version is [2.0.0.BUILD-SNAPSHOT]
Deactivating "milestone" profile for version="2.0.0.BUILD-SNAPSHOT"
Deactivating "central" profile for version="2.0.0.BUILD-SNAPSHOT"
Java HotSpot(TM) 64-Bit Server VM warning: ignoring option MaxPermSize=256M; support was removed in 8.0
Picked up _JAVA_OPTIONS: -Xmx2048m -Xms512m
Java HotSpot(TM) 64-Bit Server VM warning: ignoring option MaxPermSize=256M; support was removed in 8.0
Picked up _JAVA_OPTIONS: -Xmx2048m -Xms512m
[ERROR] Error fetching link: /home/travis/build/spring-cloud/spring-cloud-aws/spring-cloud-aws-actuator/target/apidocs/package-list. Ignored it.
asciidoctor: ERROR: README.adoc: line 5: level 0 sections can only be used when doctype is book
asciidoctor: ERROR: README.adoc: line 27: level 0 sections can only be used when doctype is book
asciidoctor: ERROR: README.adoc: line 46: level 0 sections can only be used when doctype is book
asciidoctor: ERROR: README.adoc: line 56: level 0 sections can only be used when doctype is book
asciidoctor: ERROR: README.adoc: line 121: level 0 sections can only be used when doctype is book
asciidoctor: ERROR: README.adoc: line 126: level 0 sections can only be used when doctype is book
asciidoctor: ERROR: README.adoc: line 135: level 0 sections can only be used when doctype is book
{"sectids"=>"", "toc-placement"=>"auto", "notitle"=>"", "stylesheet"=>"", "webfonts"=>"", "prewrap"=>"", "attribute-undefined"=>"drop-line", "attribute-missing"=>"skip", "iconfont-remote"=>"", "caution-caption"=>"Caution", "important-caption"=>"Important", "note-caption"=>"Note", "tip-caption"=>"Tip", "warning-caption"=>"Warning", "example-caption"=>"Example", "figure-caption"=>"Figure", "table-caption"=>"Table", "toc-title"=>"Table of Contents", "section-refsig"=>"Section", "part-refsig"=>"Part", "chapter-refsig"=>"Chapter", "appendix-refsig"=>"Appendix", "appendix-caption"=>"Appendix", "untitled-label"=>"Untitled", "version-label"=>"Version", "last-update-label"=>"Last updated", "docfile"=>"/home/travis/build/spring-cloud/spring-cloud-aws/docs/src/main/asciidoc/README.adoc", "docdir"=>"/home/travis/build/spring-cloud/spring-cloud-aws/docs/src/main/asciidoc", "docfilesuffix"=>".adoc", "docname"=>"README", "docdate"=>"2018-05-14", "docyear"=>"2018", "doctime"=>"18:48:17 +00:00", "docdatetime"=>"2018-05-14 18:48:17 +00:00", "embedded"=>"", "asciidoctor"=>"", "asciidoctor-version"=>"1.5.7.1", "safe-mode-name"=>"unsafe", "safe-mode-unsafe"=>"", "safe-mode-level"=>0, "max-include-depth"=>64, "user-home"=>"/home/travis", "backend"=>"html5", "doctype"=>"article", "htmlsyntax"=>"html", "backend-html5-doctype-article"=>"", "doctype-article"=>"", "backend-html5"=>"", "outfilesuffix"=>".html", "filetype"=>"html", "filetype-html"=>"", "basebackend-html-doctype-article"=>"", "basebackend-html"=>"", "basebackend"=>"html", "localdate"=>"2018-05-14", "localyear"=>"2018", "localtime"=>"18:50:05 +00:00", "localdatetime"=>"2018-05-14 18:50:05 +00:00", "stylesdir"=>".", "iconsdir"=>"./images/icons", "doctitle"=>"Spring Cloud for Amazon Web Services", "authorcount"=>0, "allow-uri-read"=>true}
Failed to load image: images/overview.png
Failed to load image: images/overview.png
Failed to load image: images/overview.png
Failed to load image: images/overview.png
Failed to load image: images/cloud-environment-user-data.png
Failed to load image: images/cloud-environment-user-data.png
Failed to load image: images/cloud-environment-user-data.png
Failed to load image: images/cloud-environment-user-data.png
Failed to load image: images/cloud-environment-instance-tags.png
Failed to load image: images/cloud-environment-instance-tags.png
Failed to load image: images/cloud-environment-instance-tags.png
Failed to load image: images/cloud-environment-instance-tags.png
Failed to load image: images/cloudformation-overview.png
Failed to load image: images/cloudformation-overview.png
Failed to load image: images/cloudformation-overview.png
Failed to load image: images/cloudformation-overview.png
Failed to load image: images/sns-overview.png
Failed to load image: images/sns-overview.png
Failed to load image: images/sns-overview.png
Failed to load image: images/sns-overview.png
Failed to load image: images/jdbc-retry-interceptor.png
Failed to load image: images/jdbc-retry-interceptor.png
Failed to load image: images/jdbc-retry-interceptor.png
Failed to load image: images/jdbc-retry-interceptor.png
     [copy] Copying 1 file to /home/travis/build/spring-cloud/spring-cloud-aws/docs/target/contents/reference/htmlsingle
     [copy] Copying 14 files to /home/travis/build/spring-cloud/spring-cloud-aws/docs/target/contents/reference/htmlsingle
Failed to load image: images/overview.png
Failed to load image: images/overview.png
Failed to load image: images/overview.png
Failed to load image: images/overview.png
Failed to load image: images/cloud-environment-user-data.png
Failed to load image: images/cloud-environment-user-data.png
Failed to load image: images/cloud-environment-user-data.png
Failed to load image: images/cloud-environment-user-data.png
Failed to load image: images/cloud-environment-instance-tags.png
Failed to load image: images/cloud-environment-instance-tags.png
Failed to load image: images/cloud-environment-instance-tags.png
Failed to load image: images/cloud-environment-instance-tags.png
Failed to load image: images/cloudformation-overview.png
Failed to load image: images/cloudformation-overview.png
Failed to load image: images/cloudformation-overview.png
Failed to load image: images/cloudformation-overview.png
Failed to load image: images/sns-overview.png
Failed to load image: images/sns-overview.png
Failed to load image: images/sns-overview.png
Failed to load image: images/sns-overview.png
Failed to load image: images/jdbc-retry-interceptor.png
Failed to load image: images/jdbc-retry-interceptor.png
Failed to load image: images/jdbc-retry-interceptor.png
Failed to load image: images/jdbc-retry-interceptor.png
     [copy] Copying 11 files to /home/travis/build/spring-cloud/spring-cloud-aws/docs/target/contents/reference/html
     [copy] Copying 14 files to /home/travis/build/spring-cloud/spring-cloud-aws/docs/target/contents/reference/html
travis_time:end:0cb580b6:start=1526323756183378974,finish=1526323828577100034,duration=72393721060
travis_fold:end:install.1
travis_fold:start:install.2
travis_time:start:26ecc950
$ [ "${MVN_GOAL}" == "deploy" ] && ./docs/src/main/asciidoc/ghpages.sh || echo "Not updating docs"
Not updating docs
travis_time:end:26ecc950:start=1526323828585389123,finish=1526323828591644635,duration=6255512
travis_fold:end:install.2
travis_time:start:31bafaa9
$ ./mvnw -s .settings.xml $MVN_GOAL $MVN_PROFILE -nsu -Dmaven.test.redirectTestOutputToFile=true
Running version check
The found version is [2.0.0.BUILD-SNAPSHOT]
Deactivating "milestone" profile for version="2.0.0.BUILD-SNAPSHOT"
Deactivating "central" profile for version="2.0.0.BUILD-SNAPSHOT"
Java HotSpot(TM) 64-Bit Server VM warning: ignoring option MaxPermSize=256M; support was removed in 8.0
Picked up _JAVA_OPTIONS: -Xmx2048m -Xms512m
Scanning for projects...
------------------------------------------------------------------------
Reactor Build Order:

Spring Cloud AWS Dependencies
Spring Cloud AWS
Spring Cloud AWS Core
Spring Cloud AWS Context
Spring Cloud AWS JDBC
Spring Cloud AWS Messaging
Spring Cloud AWS Actuator
Spring Cloud AWS Autoconfigure
Spring Cloud AWS Starter
Spring Cloud AWS JDBC Starter
Spring Cloud AWS Messaging Starter
Spring Cloud AWS Docs

------------------------------------------------------------------------
Building Spring Cloud AWS Dependencies 2.0.0.BUILD-SNAPSHOT
------------------------------------------------------------------------

--- maven-install-plugin:2.4:install (default-install) @ spring-cloud-aws-dependencies ---
Installing /home/travis/build/spring-cloud/spring-cloud-aws/spring-cloud-aws-dependencies/pom.xml to /home/travis/.m2/repository/org/springframework/cloud/spring-cloud-aws-dependencies/2.0.0.BUILD-SNAPSHOT/spring-cloud-aws-dependencies-2.0.0.BUILD-SNAPSHOT.pom

------------------------------------------------------------------------
Building Spring Cloud AWS 2.0.0.BUILD-SNAPSHOT
------------------------------------------------------------------------

--- maven-javadoc-plugin:2.10.4:jar (javadoc) @ spring-cloud-aws ---
Not executing Javadoc as the project is not a Java classpath-capable package

>>> maven-source-plugin:2.4:jar (attach-sources) > generate-sources @ spring-cloud-aws >>>

<<< maven-source-plugin:2.4:jar (attach-sources) < generate-sources @ spring-cloud-aws <<<


--- maven-source-plugin:2.4:jar (attach-sources) @ spring-cloud-aws ---

--- maven-install-plugin:2.4:install (default-install) @ spring-cloud-aws ---
Installing /home/travis/build/spring-cloud/spring-cloud-aws/pom.xml to /home/travis/.m2/repository/org/springframework/cloud/spring-cloud-aws/2.0.0.BUILD-SNAPSHOT/spring-cloud-aws-2.0.0.BUILD-SNAPSHOT.pom

------------------------------------------------------------------------
Building Spring Cloud AWS Core 2.0.0.BUILD-SNAPSHOT
------------------------------------------------------------------------

--- maven-resources-plugin:2.6:resources (default-resources) @ spring-cloud-aws-core ---
Using 'UTF-8' encoding to copy filtered resources.
Copying 0 resource
Copying 1 resource

--- maven-compiler-plugin:3.1:compile (default-compile) @ spring-cloud-aws-core ---
Nothing to compile - all classes are up to date

--- maven-resources-plugin:2.6:testResources (default-testResources) @ spring-cloud-aws-core ---
Using 'UTF-8' encoding to copy filtered resources.
Copying 1 resource

--- maven-compiler-plugin:3.1:testCompile (default-testCompile) @ spring-cloud-aws-core ---
Nothing to compile - all classes are up to date

--- maven-surefire-plugin:2.12.4:test (default-test) @ spring-cloud-aws-core ---
Surefire report directory: /home/travis/build/spring-cloud/spring-cloud-aws/spring-cloud-aws-core/target/surefire-reports
-------------------------------------------------------
 T E S T S
-------------------------------------------------------
Picked up _JAVA_OPTIONS: -Xmx2048m -Xms512m
Running org.springframework.cloud.aws.core.config.AmazonWebserviceClientFactoryBeanTest
Tests run: 2, Failures: 0, Errors: 0, Skipped: 0, Time elapsed: 1.664 sec
Running org.springframework.cloud.aws.core.config.AmazonWebserviceClientConfigurationUtilsTest
Tests run: 5, Failures: 0, Errors: 0, Skipped: 0, Time elapsed: 0.287 sec
Running org.springframework.cloud.aws.core.region.Ec2MetadataRegionProviderTest
Tests run: 2, Failures: 0, Errors: 0, Skipped: 0, Time elapsed: 0.004 sec
Running org.springframework.cloud.aws.core.region.StaticRegionProviderTest
Tests run: 1, Failures: 0, Errors: 0, Skipped: 0, Time elapsed: 0.002 sec
Running org.springframework.cloud.aws.core.env.StackResourceRegistryDetectingResourceIdResolverTest
Tests run: 4, Failures: 0, Errors: 0, Skipped: 0, Time elapsed: 0.899 sec
Running org.springframework.cloud.aws.core.env.stack.config.StackResourceRegistryFactoryBeanTest
Tests run: 6, Failures: 0, Errors: 0, Skipped: 0, Time elapsed: 0.457 sec
Running org.springframework.cloud.aws.core.env.stack.config.StackResourceUserTagsFactoryBeanTest
Tests run: 1, Failures: 0, Errors: 0, Skipped: 0, Time elapsed: 0.007 sec
Running org.springframework.cloud.aws.core.env.ec2.AmazonEc2InstanceUserTagsFactoryBeanTest
Tests run: 1, Failures: 0, Errors: 0, Skipped: 0, Time elapsed: 0.767 sec
Running org.springframework.cloud.aws.core.env.ec2.AmazonEc2InstanceDataPropertySourceTest
Tests run: 5, Failures: 0, Errors: 0, Skipped: 0, Time elapsed: 10.129 sec
Running org.springframework.cloud.aws.core.naming.AmazonResourceNameTest
Tests run: 14, Failures: 0, Errors: 0, Skipped: 0, Time elapsed: 0.014 sec
Running org.springframework.cloud.aws.core.credentials.CredentialsProviderFactoryBeanTest
Tests run: 3, Failures: 0, Errors: 0, Skipped: 0, Time elapsed: 0.022 sec
Running org.springframework.cloud.aws.core.io.s3.SimpleStorageNameUtilsTest
Tests run: 16, Failures: 0, Errors: 0, Skipped: 0, Time elapsed: 0.011 sec
Running org.springframework.cloud.aws.core.io.s3.PathMatchingSimpleStorageResourcePatternResolverTest
Tests run: 5, Failures: 0, Errors: 0, Skipped: 0, Time elapsed: 0.56 sec
Running org.springframework.cloud.aws.core.io.s3.SimpleStorageResourceLoaderTest
Tests run: 8, Failures: 0, Errors: 0, Skipped: 0, Time elapsed: 0.084 sec
Running org.springframework.cloud.aws.core.io.s3.AmazonS3ProxyFactoryTest
Tests run: 4, Failures: 0, Errors: 0, Skipped: 0, Time elapsed: 0.267 sec
Running org.springframework.cloud.aws.core.io.s3.AmazonS3ClientFactoryTest
Tests run: 6, Failures: 0, Errors: 0, Skipped: 0, Time elapsed: 0.04 sec
Running org.springframework.cloud.aws.core.io.s3.SimpleStorageResourceTest
Tests run: 13, Failures: 0, Errors: 0, Skipped: 0, Time elapsed: 0.854 sec
Results :
Tests run: 96, Failures: 0, Errors: 0, Skipped: 0

--- maven-jar-plugin:3.0.0:jar (default-jar) @ spring-cloud-aws-core ---

--- maven-javadoc-plugin:2.10.4:jar (javadoc) @ spring-cloud-aws-core ---
[WARNING] Javadoc Warnings
[WARNING] Picked up _JAVA_OPTIONS: -Xmx2048m -Xms512m
Building jar: /home/travis/build/spring-cloud/spring-cloud-aws/spring-cloud-aws-core/target/spring-cloud-aws-core-2.0.0.BUILD-SNAPSHOT-javadoc.jar

>>> maven-source-plugin:2.4:jar (attach-sources) > generate-sources @ spring-cloud-aws-core >>>

<<< maven-source-plugin:2.4:jar (attach-sources) < generate-sources @ spring-cloud-aws-core <<<


--- maven-source-plugin:2.4:jar (attach-sources) @ spring-cloud-aws-core ---
Building jar: /home/travis/build/spring-cloud/spring-cloud-aws/spring-cloud-aws-core/target/spring-cloud-aws-core-2.0.0.BUILD-SNAPSHOT-sources.jar

--- maven-install-plugin:2.4:install (default-install) @ spring-cloud-aws-core ---
Installing /home/travis/build/spring-cloud/spring-cloud-aws/spring-cloud-aws-core/target/spring-cloud-aws-core-2.0.0.BUILD-SNAPSHOT.jar to /home/travis/.m2/repository/org/springframework/cloud/spring-cloud-aws-core/2.0.0.BUILD-SNAPSHOT/spring-cloud-aws-core-2.0.0.BUILD-SNAPSHOT.jar
Installing /home/travis/build/spring-cloud/spring-cloud-aws/spring-cloud-aws-core/pom.xml to /home/travis/.m2/repository/org/springframework/cloud/spring-cloud-aws-core/2.0.0.BUILD-SNAPSHOT/spring-cloud-aws-core-2.0.0.BUILD-SNAPSHOT.pom
Installing /home/travis/build/spring-cloud/spring-cloud-aws/spring-cloud-aws-core/target/spring-cloud-aws-core-2.0.0.BUILD-SNAPSHOT-javadoc.jar to /home/travis/.m2/repository/org/springframework/cloud/spring-cloud-aws-core/2.0.0.BUILD-SNAPSHOT/spring-cloud-aws-core-2.0.0.BUILD-SNAPSHOT-javadoc.jar
Installing /home/travis/build/spring-cloud/spring-cloud-aws/spring-cloud-aws-core/target/spring-cloud-aws-core-2.0.0.BUILD-SNAPSHOT-sources.jar to /home/travis/.m2/repository/org/springframework/cloud/spring-cloud-aws-core/2.0.0.BUILD-SNAPSHOT/spring-cloud-aws-core-2.0.0.BUILD-SNAPSHOT-sources.jar

------------------------------------------------------------------------
Building Spring Cloud AWS Context 2.0.0.BUILD-SNAPSHOT
------------------------------------------------------------------------

--- maven-resources-plugin:2.6:resources (default-resources) @ spring-cloud-aws-context ---
Using 'UTF-8' encoding to copy filtered resources.
Copying 0 resource
Copying 8 resources

--- maven-compiler-plugin:3.1:compile (default-compile) @ spring-cloud-aws-context ---
Nothing to compile - all classes are up to date

--- maven-resources-plugin:2.6:testResources (default-testResources) @ spring-cloud-aws-context ---
Using 'UTF-8' encoding to copy filtered resources.
Copying 47 resources

--- maven-compiler-plugin:3.1:testCompile (default-testCompile) @ spring-cloud-aws-context ---
Nothing to compile - all classes are up to date

--- maven-surefire-plugin:2.12.4:test (default-test) @ spring-cloud-aws-context ---
Surefire report directory: /home/travis/build/spring-cloud/spring-cloud-aws/spring-cloud-aws-context/target/surefire-reports
-------------------------------------------------------
 T E S T S
-------------------------------------------------------
Picked up _JAVA_OPTIONS: -Xmx2048m -Xms512m
Running org.springframework.cloud.aws.cache.config.xml.CacheSchemaWithoutVersionTest
Tests run: 1, Failures: 0, Errors: 0, Skipped: 0, Time elapsed: 0.908 sec
Running org.springframework.cloud.aws.cache.config.xml.CacheBeanDefinitionParserTest
Tests run: 7, Failures: 0, Errors: 0, Skipped: 0, Time elapsed: 4.161 sec
Running org.springframework.cloud.aws.cache.config.annotation.ElastiCacheCachingConfigurationTest
Tests run: 5, Failures: 0, Errors: 0, Skipped: 0, Time elapsed: 1.084 sec
Running org.springframework.cloud.aws.cache.redis.RedisCacheFactoryTest
Tests run: 1, Failures: 0, Errors: 0, Skipped: 0, Time elapsed: 0.204 sec
Running org.springframework.cloud.aws.cache.memcached.SimpleSpringMemcachedTest
Tests run: 26, Failures: 0, Errors: 0, Skipped: 0, Time elapsed: 0.387 sec
Running org.springframework.cloud.aws.cache.memcached.MemcachedCacheFactoryTest
Tests run: 2, Failures: 0, Errors: 0, Skipped: 0, Time elapsed: 2.1 sec
Running org.springframework.cloud.aws.cache.ElastiCacheFactoryBeanTest
Tests run: 3, Failures: 0, Errors: 0, Skipped: 0, Time elapsed: 0.38 sec
Running org.springframework.cloud.aws.context.config.annotation.ContextStackConfigurationTest
Tests run: 2, Failures: 0, Errors: 0, Skipped: 0, Time elapsed: 10.611 sec
Running org.springframework.cloud.aws.context.config.annotation.ContextResourceLoaderConfigurationTest
Tests run: 1, Failures: 0, Errors: 0, Skipped: 0, Time elapsed: 1.226 sec
Running org.springframework.cloud.aws.context.config.annotation.ContextRegionConfigurationRegistrarTest
Tests run: 7, Failures: 0, Errors: 0, Skipped: 0, Time elapsed: 0.244 sec
Running org.springframework.cloud.aws.context.config.annotation.ContextInstanceDataConfigurationTest
Tests run: 4, Failures: 0, Errors: 0, Skipped: 0, Time elapsed: 35.001 sec
Running org.springframework.cloud.aws.context.config.annotation.ContextCredentialsConfigurationRegistrarTest
Tests run: 9, Failures: 0, Errors: 0, Skipped: 0, Time elapsed: 0.186 sec
Running org.springframework.cloud.aws.context.config.xml.ContextResourceLoaderBeanDefinitionParserTest
Tests run: 5, Failures: 0, Errors: 0, Skipped: 0, Time elapsed: 0.229 sec
Running org.springframework.cloud.aws.context.config.xml.StackConfigurationBeanDefinitionParserTest
Tests run: 9, Failures: 0, Errors: 0, Skipped: 0, Time elapsed: 20.604 sec
Running org.springframework.cloud.aws.context.config.xml.ContextSchemaWithoutVersionTest
Tests run: 1, Failures: 0, Errors: 0, Skipped: 0, Time elapsed: 0.03 sec
Running org.springframework.cloud.aws.context.config.xml.ContextInstanceDataPropertySourceBeanDefinitionParserTest
Tests run: 5, Failures: 0, Errors: 0, Skipped: 0, Time elapsed: 35.23 sec
Running org.springframework.cloud.aws.context.config.xml.GlobalBeanDefinitionUtilsTest
Tests run: 5, Failures: 0, Errors: 0, Skipped: 0, Time elapsed: 0.019 sec
Running org.springframework.cloud.aws.context.config.xml.ContextRegionBeanDefinitionParserTest
Tests run: 8, Failures: 0, Errors: 0, Skipped: 0, Time elapsed: 0.154 sec
Running org.springframework.cloud.aws.context.config.xml.ContextCredentialsBeanDefinitionParserTest
Tests run: 8, Failures: 0, Errors: 0, Skipped: 0, Time elapsed: 0.16 sec
Running org.springframework.cloud.aws.context.config.AmazonEc2InstanceDataPropertySourcePostProcessorTest
Tests run: 2, Failures: 0, Errors: 0, Skipped: 0, Time elapsed: 4.856 sec
Running org.springframework.cloud.aws.context.support.io.ResourceLoaderTestBeanPostProcessorTest
Tests run: 4, Failures: 0, Errors: 0, Skipped: 0, Time elapsed: 0.304 sec
Running org.springframework.cloud.aws.context.annotation.OnMissingAmazonClientConditionTest
Tests run: 2, Failures: 0, Errors: 0, Skipped: 0, Time elapsed: 0.105 sec
Running org.springframework.cloud.aws.mail.config.xml.SimpleEmailServiceBeanDefinitionParserTest
Tests run: 4, Failures: 0, Errors: 0, Skipped: 0, Time elapsed: 0.211 sec
Running org.springframework.cloud.aws.mail.config.xml.MailSchemaWithoutVersionTest
Tests run: 1, Failures: 0, Errors: 0, Skipped: 0, Time elapsed: 0.024 sec
Running org.springframework.cloud.aws.mail.simplemail.SimpleEmailServiceJavaMailSenderTest
Tests run: 13, Failures: 0, Errors: 0, Skipped: 0, Time elapsed: 0.327 sec
Running org.springframework.cloud.aws.mail.simplemail.SimpleEmailServiceMailSenderTest
Tests run: 5, Failures: 0, Errors: 0, Skipped: 0, Time elapsed: 0.009 sec
Results :
Tests run: 140, Failures: 0, Errors: 0, Skipped: 0

--- maven-jar-plugin:3.0.0:jar (default-jar) @ spring-cloud-aws-context ---

--- maven-javadoc-plugin:2.10.4:jar (javadoc) @ spring-cloud-aws-context ---

1 warning
[WARNING] Javadoc Warnings
[WARNING] Picked up _JAVA_OPTIONS: -Xmx2048m -Xms512m
[WARNING] /home/travis/build/spring-cloud/spring-cloud-aws/spring-cloud-aws-context/src/main/java/org/springframework/cloud/aws/context/config/annotation/EnableContextRegion.java:48: warning - Tag @link: reference not found: com.amazonaws.regions.Regions
Building jar: /home/travis/build/spring-cloud/spring-cloud-aws/spring-cloud-aws-context/target/spring-cloud-aws-context-2.0.0.BUILD-SNAPSHOT-javadoc.jar

>>> maven-source-plugin:2.4:jar (attach-sources) > generate-sources @ spring-cloud-aws-context >>>

<<< maven-source-plugin:2.4:jar (attach-sources) < generate-sources @ spring-cloud-aws-context <<<


--- maven-source-plugin:2.4:jar (attach-sources) @ spring-cloud-aws-context ---
Building jar: /home/travis/build/spring-cloud/spring-cloud-aws/spring-cloud-aws-context/target/spring-cloud-aws-context-2.0.0.BUILD-SNAPSHOT-sources.jar

--- maven-install-plugin:2.4:install (default-install) @ spring-cloud-aws-context ---
Installing /home/travis/build/spring-cloud/spring-cloud-aws/spring-cloud-aws-context/target/spring-cloud-aws-context-2.0.0.BUILD-SNAPSHOT.jar to /home/travis/.m2/repository/org/springframework/cloud/spring-cloud-aws-context/2.0.0.BUILD-SNAPSHOT/spring-cloud-aws-context-2.0.0.BUILD-SNAPSHOT.jar
Installing /home/travis/build/spring-cloud/spring-cloud-aws/spring-cloud-aws-context/pom.xml to /home/travis/.m2/repository/org/springframework/cloud/spring-cloud-aws-context/2.0.0.BUILD-SNAPSHOT/spring-cloud-aws-context-2.0.0.BUILD-SNAPSHOT.pom
Installing /home/travis/build/spring-cloud/spring-cloud-aws/spring-cloud-aws-context/target/spring-cloud-aws-context-2.0.0.BUILD-SNAPSHOT-javadoc.jar to /home/travis/.m2/repository/org/springframework/cloud/spring-cloud-aws-context/2.0.0.BUILD-SNAPSHOT/spring-cloud-aws-context-2.0.0.BUILD-SNAPSHOT-javadoc.jar
Installing /home/travis/build/spring-cloud/spring-cloud-aws/spring-cloud-aws-context/target/spring-cloud-aws-context-2.0.0.BUILD-SNAPSHOT-sources.jar to /home/travis/.m2/repository/org/springframework/cloud/spring-cloud-aws-context/2.0.0.BUILD-SNAPSHOT/spring-cloud-aws-context-2.0.0.BUILD-SNAPSHOT-sources.jar

------------------------------------------------------------------------
Building Spring Cloud AWS JDBC 2.0.0.BUILD-SNAPSHOT
------------------------------------------------------------------------

--- maven-resources-plugin:2.6:resources (default-resources) @ spring-cloud-aws-jdbc ---
Using 'UTF-8' encoding to copy filtered resources.
Copying 0 resource
Copying 4 resources

--- maven-compiler-plugin:3.1:compile (default-compile) @ spring-cloud-aws-jdbc ---
Nothing to compile - all classes are up to date

--- maven-resources-plugin:2.6:testResources (default-testResources) @ spring-cloud-aws-jdbc ---
Using 'UTF-8' encoding to copy filtered resources.
Copying 19 resources

--- maven-compiler-plugin:3.1:testCompile (default-testCompile) @ spring-cloud-aws-jdbc ---
Nothing to compile - all classes are up to date

--- maven-surefire-plugin:2.12.4:test (default-test) @ spring-cloud-aws-jdbc ---
Surefire report directory: /home/travis/build/spring-cloud/spring-cloud-aws/spring-cloud-aws-jdbc/target/surefire-reports
-------------------------------------------------------
 T E S T S
-------------------------------------------------------
Picked up _JAVA_OPTIONS: -Xmx2048m -Xms512m
Running org.springframework.cloud.aws.jdbc.config.xml.AmazonRdsDataSourceBeanDefinitionParserTest
Tests run: 11, Failures: 0, Errors: 0, Skipped: 0, Time elapsed: 4.216 sec
Running org.springframework.cloud.aws.jdbc.config.xml.AmazonRdsRetryInterceptorBeanDefinitionParserTest
Tests run: 6, Failures: 0, Errors: 0, Skipped: 0, Time elapsed: 0.444 sec
Running org.springframework.cloud.aws.jdbc.config.xml.JdbcSchemaWithoutVersionTest
Tests run: 1, Failures: 0, Errors: 0, Skipped: 0, Time elapsed: 0.024 sec
Running org.springframework.cloud.aws.jdbc.config.annotation.AmazonRdsInstanceConfigurationTest
Tests run: 6, Failures: 0, Errors: 0, Skipped: 0, Time elapsed: 1.981 sec
Running org.springframework.cloud.aws.jdbc.rds.AmazonRdsReadReplicaAwareDataSourceFactoryBeanTest
Tests run: 2, Failures: 0, Errors: 0, Skipped: 0, Time elapsed: 0.146 sec
Running org.springframework.cloud.aws.jdbc.rds.AmazonRdsDataSourceUserTagsFactoryBeanTest
Tests run: 3, Failures: 0, Errors: 0, Skipped: 0, Time elapsed: 0.018 sec
Running org.springframework.cloud.aws.jdbc.rds.AmazonRdsDataSourceFactoryBeanTest
Tests run: 5, Failures: 0, Errors: 0, Skipped: 0, Time elapsed: 0.012 sec
Running org.springframework.cloud.aws.jdbc.datasource.support.MapBasedDatabasePlatformSupportTest
Tests run: 5, Failures: 0, Errors: 0, Skipped: 0, Time elapsed: 0.004 sec
Running org.springframework.cloud.aws.jdbc.datasource.TomcatJdbcDataSourceFactoryTest
Tests run: 6, Failures: 0, Errors: 0, Skipped: 0, Time elapsed: 0.029 sec
Running org.springframework.cloud.aws.jdbc.datasource.ReadOnlyRoutingDataSourceTest
Tests run: 4, Failures: 0, Errors: 0, Skipped: 0, Time elapsed: 0.037 sec
Running org.springframework.cloud.aws.jdbc.retry.SqlRetryPolicyTest
Tests run: 4, Failures: 0, Errors: 0, Skipped: 0, Time elapsed: 0.004 sec
Running org.springframework.cloud.aws.jdbc.retry.RdbmsRetryOperationsInterceptorTest
Tests run: 3, Failures: 0, Errors: 0, Skipped: 0, Time elapsed: 0.07 sec
Running org.springframework.cloud.aws.jdbc.retry.DatabaseInstanceStatusRetryPolicyTest
Tests run: 5, Failures: 0, Errors: 0, Skipped: 0, Time elapsed: 0.006 sec
Results :
Tests run: 61, Failures: 0, Errors: 0, Skipped: 0

--- maven-jar-plugin:3.0.0:jar (default-jar) @ spring-cloud-aws-jdbc ---

--- maven-javadoc-plugin:2.10.4:jar (javadoc) @ spring-cloud-aws-jdbc ---
[WARNING] Javadoc Warnings
[WARNING] Picked up _JAVA_OPTIONS: -Xmx2048m -Xms512m
Building jar: /home/travis/build/spring-cloud/spring-cloud-aws/spring-cloud-aws-jdbc/target/spring-cloud-aws-jdbc-2.0.0.BUILD-SNAPSHOT-javadoc.jar

>>> maven-source-plugin:2.4:jar (attach-sources) > generate-sources @ spring-cloud-aws-jdbc >>>

<<< maven-source-plugin:2.4:jar (attach-sources) < generate-sources @ spring-cloud-aws-jdbc <<<


--- maven-source-plugin:2.4:jar (attach-sources) @ spring-cloud-aws-jdbc ---
Building jar: /home/travis/build/spring-cloud/spring-cloud-aws/spring-cloud-aws-jdbc/target/spring-cloud-aws-jdbc-2.0.0.BUILD-SNAPSHOT-sources.jar

--- maven-install-plugin:2.4:install (default-install) @ spring-cloud-aws-jdbc ---
Installing /home/travis/build/spring-cloud/spring-cloud-aws/spring-cloud-aws-jdbc/target/spring-cloud-aws-jdbc-2.0.0.BUILD-SNAPSHOT.jar to /home/travis/.m2/repository/org/springframework/cloud/spring-cloud-aws-jdbc/2.0.0.BUILD-SNAPSHOT/spring-cloud-aws-jdbc-2.0.0.BUILD-SNAPSHOT.jar
Installing /home/travis/build/spring-cloud/spring-cloud-aws/spring-cloud-aws-jdbc/pom.xml to /home/travis/.m2/repository/org/springframework/cloud/spring-cloud-aws-jdbc/2.0.0.BUILD-SNAPSHOT/spring-cloud-aws-jdbc-2.0.0.BUILD-SNAPSHOT.pom
Installing /home/travis/build/spring-cloud/spring-cloud-aws/spring-cloud-aws-jdbc/target/spring-cloud-aws-jdbc-2.0.0.BUILD-SNAPSHOT-javadoc.jar to /home/travis/.m2/repository/org/springframework/cloud/spring-cloud-aws-jdbc/2.0.0.BUILD-SNAPSHOT/spring-cloud-aws-jdbc-2.0.0.BUILD-SNAPSHOT-javadoc.jar
Installing /home/travis/build/spring-cloud/spring-cloud-aws/spring-cloud-aws-jdbc/target/spring-cloud-aws-jdbc-2.0.0.BUILD-SNAPSHOT-sources.jar to /home/travis/.m2/repository/org/springframework/cloud/spring-cloud-aws-jdbc/2.0.0.BUILD-SNAPSHOT/spring-cloud-aws-jdbc-2.0.0.BUILD-SNAPSHOT-sources.jar

------------------------------------------------------------------------
Building Spring Cloud AWS Messaging 2.0.0.BUILD-SNAPSHOT
------------------------------------------------------------------------

--- maven-resources-plugin:2.6:resources (default-resources) @ spring-cloud-aws-messaging ---
Using 'UTF-8' encoding to copy filtered resources.
Copying 0 resource
Copying 4 resources

--- maven-compiler-plugin:3.1:compile (default-compile) @ spring-cloud-aws-messaging ---
Nothing to compile - all classes are up to date

--- maven-resources-plugin:2.6:testResources (default-testResources) @ spring-cloud-aws-messaging ---
Using 'UTF-8' encoding to copy filtered resources.
Copying 41 resources

--- maven-compiler-plugin:3.1:testCompile (default-testCompile) @ spring-cloud-aws-messaging ---
Nothing to compile - all classes are up to date

--- maven-surefire-plugin:2.12.4:test (default-test) @ spring-cloud-aws-messaging ---
Surefire report directory: /home/travis/build/spring-cloud/spring-cloud-aws/spring-cloud-aws-messaging/target/surefire-reports
-------------------------------------------------------
 T E S T S
-------------------------------------------------------
Picked up _JAVA_OPTIONS: -Xmx2048m -Xms512m
Running org.springframework.cloud.aws.messaging.config.xml.AnnotationDrivenQueueListenerBeanDefinitionParserTest
Tests run: 12, Failures: 0, Errors: 0, Skipped: 0, Time elapsed: 4.107 sec
Running org.springframework.cloud.aws.messaging.config.xml.NotificationMessagingTemplateBeanDefinitionParserTest
Tests run: 5, Failures: 0, Errors: 0, Skipped: 0, Time elapsed: 0.145 sec
Running org.springframework.cloud.aws.messaging.config.xml.MessagingSchemaWithoutSchemaTest
Tests run: 1, Failures: 0, Errors: 0, Skipped: 0, Time elapsed: 0.016 sec
Running org.springframework.cloud.aws.messaging.config.xml.NotificationArgumentResolverBeanDefinitionParserTest
Tests run: 4, Failures: 0, Errors: 0, Skipped: 0, Time elapsed: 0.186 sec
Running org.springframework.cloud.aws.messaging.config.xml.QueueMessagingTemplateBeanDefinitionParserTest
Tests run: 7, Failures: 0, Errors: 0, Skipped: 0, Time elapsed: 0.254 sec
Running org.springframework.cloud.aws.messaging.config.xml.SqsAsyncClientBeanDefinitionParserTest
Tests run: 5, Failures: 0, Errors: 0, Skipped: 0, Time elapsed: 0.19 sec
Running org.springframework.cloud.aws.messaging.config.annotation.SnsConfigurationTest
Tests run: 4, Failures: 0, Errors: 0, Skipped: 0, Time elapsed: 1.655 sec
Running org.springframework.cloud.aws.messaging.config.annotation.SqsConfigurationTest
Tests run: 8, Failures: 0, Errors: 0, Skipped: 0, Time elapsed: 1.372 sec
Running org.springframework.cloud.aws.messaging.endpoint.NotificationSubjectHandlerMethodArgumentResolverTest
Tests run: 3, Failures: 0, Errors: 0, Skipped: 0, Time elapsed: 0.054 sec
Running org.springframework.cloud.aws.messaging.endpoint.config.NotificationHandlerMethodArgumentResolverFactoryBeanTest
Tests run: 3, Failures: 0, Errors: 0, Skipped: 0, Time elapsed: 0.008 sec
Running org.springframework.cloud.aws.messaging.endpoint.NotificationEndpointControllerTest
Tests run: 3, Failures: 0, Errors: 0, Skipped: 0, Time elapsed: 0.797 sec
Running org.springframework.cloud.aws.messaging.endpoint.NotificationMessageHandlerMethodArgumentResolverTest
Tests run: 3, Failures: 0, Errors: 0, Skipped: 0, Time elapsed: 0.015 sec
Running org.springframework.cloud.aws.messaging.endpoint.ComplexNotificationEndpointControllerTest
Tests run: 3, Failures: 0, Errors: 0, Skipped: 0, Time elapsed: 0.328 sec
Running org.springframework.cloud.aws.messaging.endpoint.NotificationStatusHandlerMethodArgumentResolverTest
Tests run: 2, Failures: 0, Errors: 0, Skipped: 0, Time elapsed: 0.006 sec
Running org.springframework.cloud.aws.messaging.endpoint.BaseNotificationMessageHandlerMethodArgumentResolverTest
Tests run: 2, Failures: 0, Errors: 0, Skipped: 0, Time elapsed: 0.015 sec
Running org.springframework.cloud.aws.messaging.listener.support.VisibilityHandlerMethodArgumentResolverTest
Tests run: 1, Failures: 0, Errors: 0, Skipped: 0, Time elapsed: 0.008 sec
Running org.springframework.cloud.aws.messaging.listener.support.AcknowledgmentHandlerMethodArgumentResolverTest
Tests run: 1, Failures: 0, Errors: 0, Skipped: 0, Time elapsed: 0.001 sec
Running org.springframework.cloud.aws.messaging.listener.SendToHandlerMethodReturnValueHandlerTest
Tests run: 9, Failures: 0, Errors: 0, Skipped: 0, Time elapsed: 0.093 sec
Running org.springframework.cloud.aws.messaging.listener.MessageListenerContainerTest
Tests run: 20, Failures: 0, Errors: 0, Skipped: 0, Time elapsed: 0.444 sec
Running org.springframework.cloud.aws.messaging.listener.SimpleMessageListenerContainerTest
Tests run: 28, Failures: 0, Errors: 0, Skipped: 0, Time elapsed: 1.105 sec
Running org.springframework.cloud.aws.messaging.listener.QueueMessageHandlerTest
Tests run: 17, Failures: 0, Errors: 0, Skipped: 0, Time elapsed: 0.429 sec
Running org.springframework.cloud.aws.messaging.core.TopicMessageChannelTest
Tests run: 7, Failures: 0, Errors: 0, Skipped: 0, Time elapsed: 0.016 sec
Running org.springframework.cloud.aws.messaging.core.QueueMessagingTemplateTest
Tests run: 13, Failures: 0, Errors: 0, Skipped: 0, Time elapsed: 0.064 sec
Running org.springframework.cloud.aws.messaging.core.QueueMessageChannelTest
Tests run: 26, Failures: 0, Errors: 0, Skipped: 0, Time elapsed: 0.07 sec
Running org.springframework.cloud.aws.messaging.core.NotificationMessagingTemplateTest
Tests run: 4, Failures: 0, Errors: 0, Skipped: 0, Time elapsed: 0.012 sec
Running org.springframework.cloud.aws.messaging.support.NotificationSubjectArgumentResolverTest
Tests run: 4, Failures: 0, Errors: 0, Skipped: 0, Time elapsed: 0.004 sec
Running org.springframework.cloud.aws.messaging.support.converter.ObjectMessageConverterTest
Tests run: 5, Failures: 0, Errors: 0, Skipped: 0, Time elapsed: 0.048 sec
Running org.springframework.cloud.aws.messaging.support.converter.NotificationRequestConverterTest
Tests run: 8, Failures: 0, Errors: 0, Skipped: 0, Time elapsed: 0.011 sec
Running org.springframework.cloud.aws.messaging.support.NotificationMessageArgumentResolverTest
Tests run: 4, Failures: 0, Errors: 0, Skipped: 0, Time elapsed: 0.019 sec
Running org.springframework.cloud.aws.messaging.support.destination.DynamicTopicDestinationResolverTest
Tests run: 7, Failures: 0, Errors: 0, Skipped: 0, Time elapsed: 0.009 sec
Running org.springframework.cloud.aws.messaging.support.destination.DynamicQueueUrlDestinationResolverTest
Tests run: 7, Failures: 0, Errors: 0, Skipped: 0, Time elapsed: 0.167 sec
Results :
Tests run: 226, Failures: 0, Errors: 0, Skipped: 0

--- maven-jar-plugin:3.0.0:jar (default-jar) @ spring-cloud-aws-messaging ---

--- maven-javadoc-plugin:2.10.4:jar (javadoc) @ spring-cloud-aws-messaging ---

1 warning
[WARNING] Javadoc Warnings
[WARNING] Picked up _JAVA_OPTIONS: -Xmx2048m -Xms512m
[WARNING] /home/travis/build/spring-cloud/spring-cloud-aws/spring-cloud-aws-messaging/src/main/java/org/springframework/cloud/aws/messaging/listener/annotation/SqsListener.java:66: warning - Tag @link: reference not found: org.springframework.core.convert.converter.Converter
Building jar: /home/travis/build/spring-cloud/spring-cloud-aws/spring-cloud-aws-messaging/target/spring-cloud-aws-messaging-2.0.0.BUILD-SNAPSHOT-javadoc.jar

>>> maven-source-plugin:2.4:jar (attach-sources) > generate-sources @ spring-cloud-aws-messaging >>>

<<< maven-source-plugin:2.4:jar (attach-sources) < generate-sources @ spring-cloud-aws-messaging <<<


--- maven-source-plugin:2.4:jar (attach-sources) @ spring-cloud-aws-messaging ---
Building jar: /home/travis/build/spring-cloud/spring-cloud-aws/spring-cloud-aws-messaging/target/spring-cloud-aws-messaging-2.0.0.BUILD-SNAPSHOT-sources.jar

--- maven-install-plugin:2.4:install (default-install) @ spring-cloud-aws-messaging ---
Installing /home/travis/build/spring-cloud/spring-cloud-aws/spring-cloud-aws-messaging/target/spring-cloud-aws-messaging-2.0.0.BUILD-SNAPSHOT.jar to /home/travis/.m2/repository/org/springframework/cloud/spring-cloud-aws-messaging/2.0.0.BUILD-SNAPSHOT/spring-cloud-aws-messaging-2.0.0.BUILD-SNAPSHOT.jar
Installing /home/travis/build/spring-cloud/spring-cloud-aws/spring-cloud-aws-messaging/pom.xml to /home/travis/.m2/repository/org/springframework/cloud/spring-cloud-aws-messaging/2.0.0.BUILD-SNAPSHOT/spring-cloud-aws-messaging-2.0.0.BUILD-SNAPSHOT.pom
Installing /home/travis/build/spring-cloud/spring-cloud-aws/spring-cloud-aws-messaging/target/spring-cloud-aws-messaging-2.0.0.BUILD-SNAPSHOT-javadoc.jar to /home/travis/.m2/repository/org/springframework/cloud/spring-cloud-aws-messaging/2.0.0.BUILD-SNAPSHOT/spring-cloud-aws-messaging-2.0.0.BUILD-SNAPSHOT-javadoc.jar
Installing /home/travis/build/spring-cloud/spring-cloud-aws/spring-cloud-aws-messaging/target/spring-cloud-aws-messaging-2.0.0.BUILD-SNAPSHOT-sources.jar to /home/travis/.m2/repository/org/springframework/cloud/spring-cloud-aws-messaging/2.0.0.BUILD-SNAPSHOT/spring-cloud-aws-messaging-2.0.0.BUILD-SNAPSHOT-sources.jar

------------------------------------------------------------------------
Building Spring Cloud AWS Actuator 2.0.0.BUILD-SNAPSHOT
------------------------------------------------------------------------

--- maven-resources-plugin:2.6:resources (default-resources) @ spring-cloud-aws-actuator ---
Using 'UTF-8' encoding to copy filtered resources.
skip non existing resourceDirectory /home/travis/build/spring-cloud/spring-cloud-aws/spring-cloud-aws-actuator/src/main/resources
skip non existing resourceDirectory /home/travis/build/spring-cloud/spring-cloud-aws/spring-cloud-aws-actuator/src/main/resources

--- maven-compiler-plugin:3.1:compile (default-compile) @ spring-cloud-aws-actuator ---
No sources to compile

--- maven-resources-plugin:2.6:testResources (default-testResources) @ spring-cloud-aws-actuator ---
Using 'UTF-8' encoding to copy filtered resources.
skip non existing resourceDirectory /home/travis/build/spring-cloud/spring-cloud-aws/spring-cloud-aws-actuator/src/test/resources

--- maven-compiler-plugin:3.1:testCompile (default-testCompile) @ spring-cloud-aws-actuator ---
No sources to compile

--- maven-surefire-plugin:2.12.4:test (default-test) @ spring-cloud-aws-actuator ---
No tests to run.

--- maven-jar-plugin:3.0.0:jar (default-jar) @ spring-cloud-aws-actuator ---
[WARNING] JAR will be empty - no content was marked for inclusion!

--- maven-javadoc-plugin:2.10.4:jar (javadoc) @ spring-cloud-aws-actuator ---
Building jar: /home/travis/build/spring-cloud/spring-cloud-aws/spring-cloud-aws-actuator/target/spring-cloud-aws-actuator-2.0.0.BUILD-SNAPSHOT-javadoc.jar

>>> maven-source-plugin:2.4:jar (attach-sources) > generate-sources @ spring-cloud-aws-actuator >>>

<<< maven-source-plugin:2.4:jar (attach-sources) < generate-sources @ spring-cloud-aws-actuator <<<


--- maven-source-plugin:2.4:jar (attach-sources) @ spring-cloud-aws-actuator ---
No sources in project. Archive not created.

--- maven-install-plugin:2.4:install (default-install) @ spring-cloud-aws-actuator ---
Installing /home/travis/build/spring-cloud/spring-cloud-aws/spring-cloud-aws-actuator/target/spring-cloud-aws-actuator-2.0.0.BUILD-SNAPSHOT.jar to /home/travis/.m2/repository/org/springframework/cloud/spring-cloud-aws-actuator/2.0.0.BUILD-SNAPSHOT/spring-cloud-aws-actuator-2.0.0.BUILD-SNAPSHOT.jar
Installing /home/travis/build/spring-cloud/spring-cloud-aws/spring-cloud-aws-actuator/pom.xml to /home/travis/.m2/repository/org/springframework/cloud/spring-cloud-aws-actuator/2.0.0.BUILD-SNAPSHOT/spring-cloud-aws-actuator-2.0.0.BUILD-SNAPSHOT.pom
Installing /home/travis/build/spring-cloud/spring-cloud-aws/spring-cloud-aws-actuator/target/spring-cloud-aws-actuator-2.0.0.BUILD-SNAPSHOT-javadoc.jar to /home/travis/.m2/repository/org/springframework/cloud/spring-cloud-aws-actuator/2.0.0.BUILD-SNAPSHOT/spring-cloud-aws-actuator-2.0.0.BUILD-SNAPSHOT-javadoc.jar

------------------------------------------------------------------------
Building Spring Cloud AWS Autoconfigure 2.0.0.BUILD-SNAPSHOT
------------------------------------------------------------------------

--- maven-resources-plugin:2.6:resources (default-resources) @ spring-cloud-aws-autoconfigure ---
Using 'UTF-8' encoding to copy filtered resources.
Copying 0 resource
Copying 1 resource

--- maven-compiler-plugin:3.1:compile (default-compile) @ spring-cloud-aws-autoconfigure ---
Nothing to compile - all classes are up to date

--- maven-resources-plugin:2.6:testResources (default-testResources) @ spring-cloud-aws-autoconfigure ---
Using 'UTF-8' encoding to copy filtered resources.
Copying 2 resources

--- maven-compiler-plugin:3.1:testCompile (default-testCompile) @ spring-cloud-aws-autoconfigure ---
Nothing to compile - all classes are up to date

--- maven-surefire-plugin:2.12.4:test (default-test) @ spring-cloud-aws-autoconfigure ---
Surefire report directory: /home/travis/build/spring-cloud/spring-cloud-aws/spring-cloud-aws-autoconfigure/target/surefire-reports
-------------------------------------------------------
 T E S T S
-------------------------------------------------------
Picked up _JAVA_OPTIONS: -Xmx2048m -Xms512m
Running org.springframework.cloud.aws.autoconfigure.context.ContextStackAutoConfigurationTest
Tests run: 3, Failures: 0, Errors: 0, Skipped: 0, Time elapsed: 15.119 sec
Running org.springframework.cloud.aws.autoconfigure.context.ContextCredentialsAutoConfigurationTest
Tests run: 6, Failures: 0, Errors: 0, Skipped: 0, Time elapsed: 0.32 sec
Running org.springframework.cloud.aws.autoconfigure.context.ContextInstanceDataAutoConfigurationTest
Tests run: 5, Failures: 0, Errors: 0, Skipped: 0, Time elapsed: 1.316 sec
Running org.springframework.cloud.aws.autoconfigure.context.ContextRegionProviderAutoConfigurationTest
Tests run: 2, Failures: 0, Errors: 0, Skipped: 0, Time elapsed: 0.232 sec
Running org.springframework.cloud.aws.autoconfigure.context.ContextResourceLoaderAutoConfigurationTest
Tests run: 2, Failures: 0, Errors: 0, Skipped: 0, Time elapsed: 1.092 sec
Running org.springframework.cloud.aws.autoconfigure.cache.ElastiCacheAutoConfigurationTest
Tests run: 2, Failures: 0, Errors: 0, Skipped: 0, Time elapsed: 11.167 sec
Running org.springframework.cloud.aws.autoconfigure.metrics.CloudWatchExportAutoConfigurationTest
Tests run: 2, Failures: 0, Errors: 1, Skipped: 0, Time elapsed: 0.044 sec <<< FAILURE!
testConfiguration(org.springframework.cloud.aws.autoconfigure.metrics.CloudWatchExportAutoConfigurationTest)  Time elapsed: 0.018 sec  <<< ERROR!
org.springframework.beans.factory.NoSuchBeanDefinitionException: No qualifying bean of type 'io.micrometer.cloudwatch.CloudWatchMeterRegistry' available
	at org.springframework.beans.factory.support.DefaultListableBeanFactory.getBean(DefaultListableBeanFactory.java:347)
	at org.springframework.beans.factory.support.DefaultListableBeanFactory.getBean(DefaultListableBeanFactory.java:334)
	at org.springframework.context.support.AbstractApplicationContext.getBean(AbstractApplicationContext.java:1107)
	at org.springframework.cloud.aws.autoconfigure.metrics.CloudWatchExportAutoConfigurationTest.testConfiguration(CloudWatchExportAutoConfigurationTest.java:64)
	at sun.reflect.NativeMethodAccessorImpl.invoke0(Native Method)
	at sun.reflect.NativeMethodAccessorImpl.invoke(NativeMethodAccessorImpl.java:62)
	at sun.reflect.DelegatingMethodAccessorImpl.invoke(DelegatingMethodAccessorImpl.java:43)
	at java.lang.reflect.Method.invoke(Method.java:498)
	at org.junit.runners.model.FrameworkMethod$1.runReflectiveCall(FrameworkMethod.java:50)
	at org.junit.internal.runners.model.ReflectiveCallable.run(ReflectiveCallable.java:12)
	at org.junit.runners.model.FrameworkMethod.invokeExplosively(FrameworkMethod.java:47)
	at org.junit.internal.runners.statements.InvokeMethod.evaluate(InvokeMethod.java:17)
	at org.junit.internal.runners.statements.RunBefores.evaluate(RunBefores.java:26)
	at org.junit.runners.ParentRunner.runLeaf(ParentRunner.java:325)
	at org.junit.runners.BlockJUnit4ClassRunner.runChild(BlockJUnit4ClassRunner.java:78)
	at org.junit.runners.BlockJUnit4ClassRunner.runChild(BlockJUnit4ClassRunner.java:57)
	at org.junit.runners.ParentRunner$3.run(ParentRunner.java:290)
	at org.junit.runners.ParentRunner$1.schedule(ParentRunner.java:71)
	at org.junit.runners.ParentRunner.runChildren(ParentRunner.java:288)
	at org.junit.runners.ParentRunner.access$000(ParentRunner.java:58)
	at org.junit.runners.ParentRunner$2.evaluate(ParentRunner.java:268)
	at org.junit.runners.ParentRunner.run(ParentRunner.java:363)
	at org.apache.maven.surefire.junit4.JUnit4Provider.execute(JUnit4Provider.java:252)
	at org.apache.maven.surefire.junit4.JUnit4Provider.executeTestSet(JUnit4Provider.java:141)
	at org.apache.maven.surefire.junit4.JUnit4Provider.invoke(JUnit4Provider.java:112)
	at sun.reflect.NativeMethodAccessorImpl.invoke0(Native Method)
	at sun.reflect.NativeMethodAccessorImpl.invoke(NativeMethodAccessorImpl.java:62)
	at sun.reflect.DelegatingMethodAccessorImpl.invoke(DelegatingMethodAccessorImpl.java:43)
	at java.lang.reflect.Method.invoke(Method.java:498)
	at org.apache.maven.surefire.util.ReflectionUtils.invokeMethodWithArray(ReflectionUtils.java:189)
	at org.apache.maven.surefire.booter.ProviderFactory$ProviderProxy.invoke(ProviderFactory.java:165)
	at org.apache.maven.surefire.booter.ProviderFactory.invokeProvider(ProviderFactory.java:85)
	at org.apache.maven.surefire.booter.ForkedBooter.runSuitesInProcess(ForkedBooter.java:115)
	at org.apache.maven.surefire.booter.ForkedBooter.main(ForkedBooter.java:75)
Running org.springframework.cloud.aws.autoconfigure.mail.MailSenderAutoConfigurationTest
Tests run: 1, Failures: 0, Errors: 0, Skipped: 0, Time elapsed: 0.307 sec
Running org.springframework.cloud.aws.autoconfigure.jdbc.AmazonRdsDatabaseAutoConfigurationTest
Tests run: 4, Failures: 0, Errors: 0, Skipped: 0, Time elapsed: 1.782 sec
Results :
Tests in error: 
  testConfiguration(org.springframework.cloud.aws.autoconfigure.metrics.CloudWatchExportAutoConfigurationTest): No qualifying bean of type 'io.micrometer.cloudwatch.CloudWatchMeterRegistry' available
Tests run: 27, Failures: 0, Errors: 1, Skipped: 0
------------------------------------------------------------------------
Reactor Summary:

Spring Cloud AWS Dependencies ...................... SUCCESS [  0.223 s]
Spring Cloud AWS ................................... SUCCESS [  1.426 s]
Spring Cloud AWS Core .............................. SUCCESS [ 21.525 s]
Spring Cloud AWS Context ........................... SUCCESS [02:03 min]
Spring Cloud AWS JDBC .............................. SUCCESS [ 10.877 s]
Spring Cloud AWS Messaging ......................... SUCCESS [ 16.860 s]
Spring Cloud AWS Actuator .......................... SUCCESS [  0.130 s]
Spring Cloud AWS Autoconfigure ..................... FAILURE [ 31.869 s]
Spring Cloud AWS Starter ........................... SKIPPED
Spring Cloud AWS JDBC Starter ...................... SKIPPED
Spring Cloud AWS Messaging Starter ................. SKIPPED
Spring Cloud AWS Docs .............................. SKIPPED
------------------------------------------------------------------------
BUILD FAILURE
------------------------------------------------------------------------
Total time: 03:27 min
Finished at: 2018-05-14T18:53:57Z
Final Memory: 43M/761M
------------------------------------------------------------------------
[ERROR] Failed to execute goal org.apache.maven.plugins:maven-surefire-plugin:2.12.4:test (default-test) on project spring-cloud-aws-autoconfigure: There are test failures.
[ERROR] 
[ERROR] Please refer to /home/travis/build/spring-cloud/spring-cloud-aws/spring-cloud-aws-autoconfigure/target/surefire-reports for the individual test results.
[ERROR] -> [Help 1]
[ERROR] 
[ERROR] To see the full stack trace of the errors, re-run Maven with the -e switch.
[ERROR] Re-run Maven using the -X switch to enable full debug logging.
[ERROR] 
[ERROR] For more information about the errors and possible solutions, please read the following articles:
[ERROR] [Help 1] http://cwiki.apache.org/confluence/display/MAVEN/MojoFailureException
[ERROR] 
[ERROR] After correcting the problems, you can resume the build with the command
[ERROR]   mvn <goals> -rf :spring-cloud-aws-autoconfigure
travis_time:end:31bafaa9:start=1526323828599885635,finish=1526324037937183675,duration=209337298040

The command "./mvnw -s .settings.xml $MVN_GOAL $MVN_PROFILE -nsu -Dmaven.test.redirectTestOutputToFile=true" exited with 1.
travis_fold:start:cache.2
store build cache
travis_time:start:138b7684

travis_time:end:138b7684:start=1526324037946013930,finish=1526324037953236391,duration=7222461
travis_time:start:27f44fa9
change detected (content changed, file is created, or file is deleted):
/home/travis/.m2/repository/org/apache/maven/plugins/maven-compiler-plugin/resolver-status.properties
/home/travis/.m2/repository/org/apache/maven/plugins/maven-failsafe-plugin/resolver-status.properties
/home/travis/.m2/repository/org/apache/maven/plugins/maven-surefire-plugin/resolver-status.properties
/home/travis/.m2/repository/org/apache/maven/plugins/maven-war-plugin/resolver-status.properties
/home/travis/.m2/repository/org/codehaus/mojo/build-helper-maven-plugin/resolver-status.properties
/home/travis/.m2/repository/org/codehaus/mojo/exec-maven-plugin/resolver-status.properties
/home/travis/.m2/repository/org/springframework/cloud/spring-cloud-aws/2.0.0.BUILD-SNAPSHOT/maven-metadata-local.xml
/home/travis/.m2/repository/org/springframework/cloud/spring-cloud-aws/2.0.0.BUILD-SNAPSHOT/_remote.repositories
/home/travis/.m2/repository/org/springframework/cloud/spring-cloud-aws-actuator/2.0.0.BUILD-SNAPSHOT/maven-metadata-local.xml
/home/travis/.m2/repository/org/springframework/clou

...

changes detected, packing new archive
.
.
.
.
.
.
uploading archive
travis_time:end:27f44fa9:start=1526324037961655811,finish=1526324081598100086,duration=43636444275
travis_fold:end:cache.2

Done. Your build exited with 1.
