id,url,owner_id,name,language,forks_num,users_num,commits_2018_num
9509377,https://api.github.com/repos/google/closure-compiler,95143,closure-compiler,Java,433,5,519
12973532,https://api.github.com/repos/spring-cloud/spring-cloud-aws,5096440,spring-cloud-aws,Java,134,22,419
21597,https://api.github.com/repos/geotools/geotools,70106,geotools,Java,366,27,134
20010953,https://api.github.com/repos/speedment/speedment,7059278,speedment,Java,67,9,127