github_id,project,forks_num,users_num,commits_2018_num,isOnTravis,isMaven
9509377,google/closure-compiler,433,5,519,true,true
12973532,spring-cloud/spring-cloud-aws,134,22,419,true,true
21597,geotools/geotools,366,27,134,true,true
20010953,speedment/speedment,67,9,127,true,true
