id,Time Started,Date Submitted,Status,Referer,has_seen_report,report_project,report_is_useful,report_learned_something,report_made_me_curious,report_thoughts,slowbuild_identification,slowbuild_actionable,slowbuild_shouldfail,slowbuild_thoughts,failedtests_identification,failedtests_actionable,failedtests_shouldfail,failedtests_thoughts,latemerging_identification,latemerging_actionable,latemerging_shouldfail,latemerging_thoughts,brokenmaster_awareness_freq,brokenmaster_awareness_timetofix,brokenmaster_actionable,brokenmaster_thoughts,overall_novelty,overall_overview,overall_positive_effect,overall_would_integrate,overall_thoughts,demographics_education,demographics_education_other,demographics_position,demographics_position_other,demographics_domain,demographics_experience_programming,demographics_ci_theory,demographics_ci_practice,demographics_role,name,email,include_in_raffle,can_contact,questionnaire_thoughts
7,"Aug 16, 2018 7:21:29 am","Aug 16, 2018 7:34:55 am",Completed Both,http://www.surveygizmo.com/s3/4515476/Summarizing-the-Continuous-Integration-Process,Yes,,2,2,2,Not clear where the stats were derived from. Our prs can fail for more than one reason on github and some are not true failures (style warnings for example). We follow gitflow so we merge into develop more often than master and this is normal with gitflow. We don't necessarily want to push to master regularly. We're producing libraries rather than releasing to an environment so we're not doing continuous delivery (though we'd like to release more often). I think you'll find that Spring projects for example won't merge to master very often.,4,3,3,,4,3,3,,3,3,2,,3,3,3,Which branch does it mean? What is the name of the branch and how is it identified as the release branch?,4,2,2,2,The assumptions built into the tool need to be much clearer. How are release branches identified and in what situations are tests considered skipped? I think we've skipped tests before merging way more than the report says. See other previous answers.,Self-studied,,Professional Developer,,business process management,High,High,High,developer and owner,,,FALSE,FALSE,
8,"Aug 16, 2018 8:11:22 am","Aug 16, 2018 8:41:24 am",Completed Both,http://www.surveygizmo.com/s3/4515476/Summarizing-the-Continuous-Integration-Process,Yes,,2,4,5,Using the develop branch as reference is probably more meaningful for us. We are using gitflow as branching convention so develop become our main branch and master is only updated when a new release happens.,5,3,2,,5,4,2,"All depends on the pipeline configuration. This is generally true, but in some cases we can have a pipeline building  a project A with skip tests in a step A to unblock down streams faster. In this case, the tests skipped by step A are executed by another step on the same pipeline (once the down streams have been unblocked). In this case it shouldn't fail.",4,4,2,,4,4,3,,NA,4,4,4,,Master,,Professional Developer,,,High,High,High,Develolper,,,FALSE,FALSE,
9,"Aug 16, 2018 9:37:42 am","Aug 16, 2018 9:38:27 am",Completed Only Specific,http://www.surveygizmo.com/s3/4515476/Summarizing-the-Continuous-Integration-Process,Yes,,2,2,3,,NA,NA,NA,,NA,NA,NA,,NA,NA,NA,,NA,NA,NA,,NA,NA,NA,NA,,NA,,NA,,,NA,NA,NA,NA,,,FALSE,FALSE,
10,"Aug 16, 2018 9:40:30 am","Aug 16, 2018 9:48:51 am",Completed Both,http://www.surveygizmo.com/s3/4515476/Summarizing-the-Continuous-Integration-Process,Yes,,4,4,3,,3,4,2,,3,2,3,Not sure what it's reporting for our project or how it's getting the data,3,3,2,Different teams may use different branching models; it probably needs to be configurable which branches are candidates for merging (which is what this test is testing) and which are simply one-off experiments left alone.,4,2,4,,3,4,3,4,,Master,,Professional Developer,,academic,Moderate,Moderate,Moderate,NA,,,FALSE,FALSE,Good job making the tool freely available! Good luck with your paper.
11,"Aug 16, 2018 9:50:59 am","Aug 16, 2018 10:36:24 am",Completed Only General,http://www.surveygizmo.com/s3/4515476/Summarizing-the-Continuous-Integration-Process,No,,NA,NA,NA,,4,4,2,Slow build is really problem but I think build should not failed only for this reason alone.,4,3,3,"It should be avoided but in some cases, like say, major fix is required for business use case, then may be, I will not mind skipping test case",4,3,3,,4,4,4,"I, as a release manager, this report is very useful for me.",4,4,4,4,These are useful reports but I want to know about overhead of generating these report.,Bachelor,,Professional Developer,,finance,High,High,High,developer,Bhushan Patil,thebhushanpatil@gmail.com,TRUE,TRUE,It seems promising.
13,"Aug 16, 2018 6:46:00 pm","Aug 16, 2018 7:09:53 pm",Completed Only General,https://old.reddit.com/r/devops/comments/97wt3t/cianalyser_a_tool_for_automated_detection_of_ci/,No,,NA,NA,NA,,5,3,1,"Figuring out the cause of slow builds would be useful. If they're highly variable, like the above, it might indicate resource contention on the build machine or slow networks conditions. Conversely, if there's an upward trend or sudden change, it'd be useful to identify commits that introduced the change, or get a breakdown of which build steps took the most time.  Regarding high severity warnings failing the build: I'm assuming that this analysis is not part of the build itself, so not sure how this would work. IMO a build that's taken longer than some upper limit of time to execute should fail, but that's not the role of an analysis tool.",5,5,1,How do you differentiate between 'ignored' and commented-out tests?   I'd be keen to see this tool detect tests that were subsequently commented out rather than properly disabled via the test runner.,5,5,1,,2,4,4,,NA,4,4,4,,Master,,Professional Developer,,logistics,High,High,High,developer,,ci-survey@danhawkes.co.uk,TRUE,TRUE,
14,"Aug 16, 2018 6:50:18 pm","Aug 16, 2018 7:04:02 pm",Completed Only General,https://www.surveygizmo.com/,No,,NA,NA,NA,,5,2,2,Slow build threshold should be configurable. Slow build failure condition should be configurable. The build timeout plugin for jenkins handles this well.,4,4,1,"Software engineering is a human endeavor. A report like this is good, but it should never take control away from humans (by failing a build automatically.) There are many cases where failing tests are no longer relevant and *should* be removed. If a problem like this is reported by an automated tool and it is determined to be a real problem (by human oversight), then the correct response is for a human to address the human failure.",3,3,1,,5,5,2,,2,3,3,2,,Self-studied,,Other - Write In,Devops Engineer,automotive industry,High,High,High,Architect,,,FALSE,FALSE,
15,"Aug 16, 2018 7:06:45 pm","Aug 16, 2018 7:12:09 pm",Completed Only General,https://www.surveygizmo.com/s3/4515476/Summarizing-the-Continuous-Integration-Process,No,,NA,NA,NA,,4,2,1,Include time per test/class,5,4,5,"Tests should not be skipped, but fixed or ignored from the code itself",5,5,4,"Tests _could_ run on the ""merged"" branch resulting from master+feature, if that's possible. This way, you know exactly which tests don't pass anymore",5,5,5,,1,2,5,4,,Master,,Professional Developer,,Security (Web),High,High,Moderate,Developer,Maxime,punkeel@me.com,TRUE,TRUE,
17,"Aug 16, 2018 7:44:40 pm","Aug 16, 2018 7:44:53 pm",Partial,http://www.surveygizmo.com/s3/4515476/Summarizing-the-Continuous-Integration-Process,No,,NA,NA,NA,,NA,NA,NA,,NA,NA,NA,,NA,NA,NA,,NA,NA,NA,,NA,NA,NA,NA,,NA,,NA,,,NA,NA,NA,NA,,,FALSE,FALSE,
18,"Aug 16, 2018 8:20:52 pm","Aug 16, 2018 8:21:04 pm",Partial,http://www.surveygizmo.com/s3/4515476/Summarizing-the-Continuous-Integration-Process,No,,NA,NA,NA,,NA,NA,NA,,NA,NA,NA,,NA,NA,NA,,NA,NA,NA,,NA,NA,NA,NA,,NA,,NA,,,NA,NA,NA,NA,,,FALSE,FALSE,
19,"Aug 16, 2018 8:38:16 pm","Aug 16, 2018 8:38:38 pm",Partial,https://www.reddit.com/r/devops/comments/97wt3t/cianalyser_a_tool_for_automated_detection_of_ci/,No,,NA,NA,NA,,NA,NA,NA,,NA,NA,NA,,NA,NA,NA,,NA,NA,NA,,NA,NA,NA,NA,,NA,,NA,,,NA,NA,NA,NA,,,FALSE,FALSE,
20,"Aug 16, 2018 8:52:19 pm","Aug 16, 2018 8:57:05 pm",Completed Only General,http://www.surveygizmo.com/s3/4515476/Summarizing-the-Continuous-Integration-Process,No,,NA,NA,NA,,5,3,4,,4,2,5,,5,3,4,,4,4,4,,4,4,4,3,,Bachelor,,Professional Developer,,SaaS,Moderate,High,High,DevOps/SRE,Peter,pgrifel@gmail.com,TRUE,FALSE,
22,"Aug 16, 2018 9:09:32 pm","Aug 16, 2018 9:24:01 pm",Completed Only General,https://old.reddit.com/,No,,NA,NA,NA,,3,2,1,Bar charts of averages + an average line are REALLY bad visualizations for this type of data.,4,3,1,,4,2,1,"Rebasing is much prefered to merging in many cases, this doesn't seem to cover this pattern.  Also proper tooling would just regularly test if merges can still happen and even run builds on the merges, so this is not necessarily an anti-pattern.",4,4,3,"If you have a separate branch for a release version, you're not running continuous integration, you are just building code quite often.  Time to fix/recover is more important than number of breakages, because focussing on bringing that number down probably also reduces number of  builds in general.",2,3,2,2,The reports so far were only about builds and unit tests.,NA,,Professional Developer,,"distributed systems, devops",Moderate,Moderate,High,"admin, supporter, developer",,,FALSE,FALSE,
23,"Aug 16, 2018 9:29:37 pm","Aug 16, 2018 9:29:44 pm",Partial,https://www.reddit.com/r/devops/comments/97wt3t/cianalyser_a_tool_for_automated_detection_of_ci/,No,,NA,NA,NA,,NA,NA,NA,,NA,NA,NA,,NA,NA,NA,,NA,NA,NA,,NA,NA,NA,NA,,NA,,NA,,,NA,NA,NA,NA,,,FALSE,FALSE,
26,"Aug 16, 2018 11:07:45 pm","Aug 16, 2018 11:14:56 pm",Completed Both,http://www.surveygizmo.com/s3/4515476/Summarizing-the-Continuous-Integration-Process,Yes,,4,3,5,,5,5,1,A slow build should be weighed against the weight of the artifacts. A large increase in artifact/deliverables may be considered less severe than a long build with less of a jump in deliverable (i.e. Such a scenario would indicate something isn't tuned as well as it was).,5,5,5,,5,5,5,,5,5,5,,4,4,5,5,,Master,,Professional Developer,,Financial Sector (HFT),High,High,High,Lead Developer,Rob Tingay,rob@tingay.info,FALSE,TRUE,
27,"Aug 16, 2018 11:14:50 pm","Aug 16, 2018 11:31:02 pm",Completed Only General,http://www.surveygizmo.com/s3/4515476/Summarizing-the-Continuous-Integration-Process,No,,NA,NA,NA,,4,2,NA,"Often new features of testing can decrease the build speed. You need to be able to say ""we've changed the build process, you can't compare before/after""",4,NA,1,"Tests I've seen ignored are almost exclusively due to flakey tests, which are ignored until they can be fixed",4,4,4,Would prefer to have master merged into featureX to bring forward conflicts.   I'd rather be warned about parallel feature branches that are long running. ,4,4,1,"Your quiz format is weird. It shows a picture of X, then asks ""did we showed you a picture of X; agree/disagree"". You haven't gotten any feedback on which customer have this problem, and where in their workflow they'd benefit from a report like this, and why they'd want to look at that graph - what's the trigger?",2,2,1,2,"You have a solution in need of a problem. Find out who needs to improve software delivery practices (eg. Build engineers, agile coaches, consultants, delivery leads), and how they do their job, and where they would need this information.   These reports are NOT appropriate for every developer",Bachelor,,Professional Developer,,"Banking, tech, media",High,High,High,"Dev, Ops, QA, tech leadership, build engineering,",Sebastian Cole,sebastian.paris@gmail.com,FALSE,TRUE,
30,"Aug 17, 2018 1:12:50 am","Aug 17, 2018 1:17:52 am",Completed Only General,http://www.surveygizmo.com/s3/4515476/Summarizing-the-Continuous-Integration-Process,No,,NA,NA,NA,,5,5,5,,5,3,5,,5,5,3,,5,5,3,,4,3,5,5,,Master,,Professional Developer,,,High,High,High,NA,,,FALSE,FALSE,
31,"Aug 17, 2018 1:16:51 am","Aug 17, 2018 1:18:23 am",Partial,http://www.surveygizmo.com/s3/4515476/Summarizing-the-Continuous-Integration-Process,No,,NA,NA,NA,,4,2,1,,NA,NA,NA,,NA,NA,NA,,NA,NA,NA,,NA,NA,NA,NA,,NA,,NA,,,NA,NA,NA,NA,,,FALSE,FALSE,
33,"Aug 17, 2018 1:24:46 am","Aug 17, 2018 1:30:49 am",Completed Only General,http://www.surveygizmo.com/s3/4515476/Summarizing-the-Continuous-Integration-Process,No,,NA,NA,NA,,4,3,1,We have a time out for our builds. Having a slow build does not mean it should be failed additionally to that already preexisting timeout.,4,2,5,,4,4,1,,5,2,4,,2,4,5,4,,Bachelor,,Other - Write In,DevOps engineer ,Human resources,Moderate,High,High,DevOps,Ernestas,ernestas@linux.com,TRUE,TRUE,
34,"Aug 17, 2018 1:36:08 am","Aug 17, 2018 1:41:49 am",Completed Only General,http://www.surveygizmo.com/s3/4515476/Summarizing-the-Continuous-Integration-Process,No,,NA,NA,NA,,1,3,2,Be good to see which steps of the build are slower instead of just entire build. ex:- test execution times are increasing over a period of time,4,4,2,,4,4,3,,4,4,4,,4,4,4,3,,Bachelor,,Professional Developer,,Finance,High,Moderate,Moderate,Developer,Suketu,suketu.h@gmail.com,TRUE,TRUE,
35,"Aug 17, 2018 1:43:32 am","Aug 17, 2018 1:58:55 am",Completed Only General,android-app://com.laurencedawson.reddit_sync.pro,No,,NA,NA,NA,,4,4,2,,4,3,2,,5,4,2,,4,4,3,,3,4,4,4,CI reports look good and definitely highlight issues that should be addressed.  They don't tell the whole story but would increase awareness and visibility of the problems.,Master,,Other - Write In,Infrastructure/DevOps Engineer,Autoinsurance,Moderate,High,High,Developer/DevOps Engineer,Steven Rothwell,srothwell4@gmail.com,TRUE,TRUE,
36,"Aug 17, 2018 2:24:50 am","Aug 17, 2018 2:25:01 am",Partial,https://www.reddit.com/r/devops/comments/97wt3t/cianalyser_a_tool_for_automated_detection_of_ci/,No,,NA,NA,NA,,NA,NA,NA,,NA,NA,NA,,NA,NA,NA,,NA,NA,NA,,NA,NA,NA,NA,,NA,,NA,,,NA,NA,NA,NA,,,FALSE,FALSE,
37,"Aug 17, 2018 2:31:25 am","Aug 17, 2018 2:31:41 am",Partial,http://www.surveygizmo.com/s3/4515476/Summarizing-the-Continuous-Integration-Process,Yes,,NA,NA,NA,,NA,NA,NA,,NA,NA,NA,,NA,NA,NA,,NA,NA,NA,,NA,NA,NA,NA,,NA,,NA,,,NA,NA,NA,NA,,,FALSE,FALSE,
38,"Aug 17, 2018 2:56:04 am","Aug 17, 2018 3:26:30 am",Partial,http://www.surveygizmo.com/s3/4515476/Summarizing-the-Continuous-Integration-Process,No,,NA,NA,NA,,4,2,3,"One big problem with slow build detection is legitimate increases to builds, such as adding a whole new stage to the build which is expected to take longer. This would cause problems if you were to fail a build due to this and I cannot think of any elegant ways around this except disabling the check, which means it is only useful after the build times have stabilised.  Maybe if it also took into account if the build pipeline it's self had changed it could relax the rules? But this leads to other problems.",4,3,2,There are ligitimate reasons to remove a failing test such as the feature no longer exists or was heavily changed. Can your system detect these but forgot to delete the test before pushing? How would you get these changes merged in if this you auto fail on them despite them being approved changes?  How would this detect people removing tests locally when they detect a test is now failing.  Really this need some understanding of the code and is hard to block all builds when this happens.,4,3,1,"If you fail the build work can never be merged. This would discourage people from commiting eairly rather than fixing any problems. I would consider this check an anti pattern as it goes against encouraging people to commit and push often, even if they don't merge regularly.",4,3,3,,NA,NA,NA,NA,,NA,,NA,,,NA,NA,NA,NA,,,FALSE,FALSE,
39,"Aug 17, 2018 3:25:30 am","Aug 17, 2018 3:30:17 am",Completed Only General,https://www.reddit.com/r/devops/comments/97wt3t/cianalyser_a_tool_for_automated_detection_of_ci/,No,,NA,NA,NA,,4,4,5,,4,3,2,,4,4,4,,5,4,4,,4,4,4,5,,Master,,Professional Developer,,Services,Moderate,Moderate,Moderate,Devops,Rafael Reia,rafael.reia@yieldr.com,TRUE,TRUE,
40,"Aug 17, 2018 4:42:09 am","Aug 17, 2018 4:42:19 am",Partial,http://www.surveygizmo.com/s3/4515476/Summarizing-the-Continuous-Integration-Process,No,,NA,NA,NA,,NA,NA,NA,,NA,NA,NA,,NA,NA,NA,,NA,NA,NA,,NA,NA,NA,NA,,NA,,NA,,,NA,NA,NA,NA,,,FALSE,FALSE,
41,"Aug 17, 2018 4:51:08 am","Aug 17, 2018 5:01:34 am",Completed Only General,https://www.reddit.com/r/devops/comments/97wt3t/cianalyser_a_tool_for_automated_detection_of_ci/,No,,NA,NA,NA,,4,2,5,"3 minutes is a good target for a ci build (lint source code, run unit tests, generate artifacts, generate documentation, etc.) for a single project",3,2,5,,5,4,2,,4,2,2,"Nobody intentionally breaks master. The solution to this problem is to use pull requests, with a dry-run CI build beforehand.",2,3,2,3,This doesn't include anything about code reviews. It also doesn't include any dependency analysis. You should fail the build (or at least warn) when deprecated software is used.,Bachelor,,Professional Developer,,cloud,High,High,High,developer,,,FALSE,FALSE,
42,"Aug 17, 2018 5:22:26 am","Aug 17, 2018 5:22:46 am",Partial,http://www.surveygizmo.com/s3/4515476/Summarizing-the-Continuous-Integration-Process,No,,NA,NA,NA,,NA,NA,NA,,NA,NA,NA,,NA,NA,NA,,NA,NA,NA,,NA,NA,NA,NA,,NA,,NA,,,NA,NA,NA,NA,,,FALSE,FALSE,
44,"Aug 17, 2018 6:46:45 am","Aug 17, 2018 6:54:37 am",Completed Only General,http://www.surveygizmo.com/s3/4515476/Summarizing-the-Continuous-Integration-Process,No,,NA,NA,NA,,4,5,1,,5,5,5,,2,2,1,,3,3,3,,2,3,2,1,,Self-studied,,Other - Write In,Site Reliability Engineer ,Advertising,High,High,High,Site Reliability Engineer,Alexis Vanier (gh: @avanier),alexis@amonoid.io,TRUE,TRUE,
46,"Aug 17, 2018 6:57:22 am","Aug 17, 2018 6:57:36 am",Partial,https://www.reddit.com/,No,,NA,NA,NA,,NA,NA,NA,,NA,NA,NA,,NA,NA,NA,,NA,NA,NA,,NA,NA,NA,NA,,NA,,NA,,,NA,NA,NA,NA,,,FALSE,FALSE,
47,"Aug 17, 2018 7:10:47 am","Aug 17, 2018 7:11:34 am",Partial,http://www.surveygizmo.com/s3/4515476/Summarizing-the-Continuous-Integration-Process,No,,NA,NA,NA,,NA,NA,NA,,NA,NA,NA,,NA,NA,NA,,NA,NA,NA,,NA,NA,NA,NA,,NA,,NA,,,NA,NA,NA,NA,,,FALSE,FALSE,
48,"Aug 17, 2018 7:38:46 am","Aug 17, 2018 7:38:55 am",Partial,http://www.surveygizmo.com/s3/4515476/Summarizing-the-Continuous-Integration-Process,No,,NA,NA,NA,,NA,NA,NA,,NA,NA,NA,,NA,NA,NA,,NA,NA,NA,,NA,NA,NA,NA,,NA,,NA,,,NA,NA,NA,NA,,,FALSE,FALSE,
49,"Aug 17, 2018 7:45:45 am","Aug 17, 2018 7:45:50 am",Partial,http://www.surveygizmo.com/s3/4515476/Summarizing-the-Continuous-Integration-Process,No,,NA,NA,NA,,NA,NA,NA,,NA,NA,NA,,NA,NA,NA,,NA,NA,NA,,NA,NA,NA,NA,,NA,,NA,,,NA,NA,NA,NA,,,FALSE,FALSE,
51,"Aug 17, 2018 9:36:14 am","Aug 17, 2018 9:36:19 am",Partial,https://www.reddit.com/r/devops/comments/97wt3t/cianalyser_a_tool_for_automated_detection_of_ci/,Yes,,NA,NA,NA,,NA,NA,NA,,NA,NA,NA,,NA,NA,NA,,NA,NA,NA,,NA,NA,NA,NA,,NA,,NA,,,NA,NA,NA,NA,,,FALSE,FALSE,
53,"Aug 17, 2018 10:02:06 am","Aug 17, 2018 10:03:04 am",Partial,http://www.surveygizmo.com/s3/4515476/Summarizing-the-Continuous-Integration-Process,No,,NA,NA,NA,,4,2,2,,NA,NA,NA,,NA,NA,NA,,NA,NA,NA,,NA,NA,NA,NA,,NA,,NA,,,NA,NA,NA,NA,,,FALSE,FALSE,
54,"Aug 17, 2018 10:02:21 am","Aug 17, 2018 10:02:35 am",Partial,http://www.surveygizmo.com/s3/4515476/Summarizing-the-Continuous-Integration-Process,No,,NA,NA,NA,,NA,NA,NA,,NA,NA,NA,,NA,NA,NA,,NA,NA,NA,,NA,NA,NA,NA,,NA,,NA,,,NA,NA,NA,NA,,,FALSE,FALSE,
56,"Aug 17, 2018 10:36:24 am","Aug 17, 2018 10:44:58 am",Completed Only General,http://www.surveygizmo.com/s3/4515476/Summarizing-the-Continuous-Integration-Process,No,,NA,NA,NA,,5,4,5,,3,4,5,,4,5,3,,4,5,3,,4,4,4,4,,Apprentice,,Professional Developer,,e-commerce,High,High,Moderate,development,David,habsuno@gmail.com,TRUE,TRUE,
58,"Aug 17, 2018 10:59:32 am","Aug 17, 2018 11:02:38 am",Completed Only General,http://www.surveygizmo.com/s3/4515476/Summarizing-the-Continuous-Integration-Process,No,,NA,NA,NA,,2,5,5,,4,4,5,,4,2,5,,4,5,4,,3,3,4,3,,Self-studied,,Professional Developer,,Business / Financial,Moderate,High,High,platform,Chris,chris.schaefer.it@gmail.com,TRUE,FALSE,
59,"Aug 17, 2018 11:07:27 am","Aug 17, 2018 11:07:39 am",Partial,http://www.surveygizmo.com/s3/4515476/Summarizing-the-Continuous-Integration-Process,No,,NA,NA,NA,,NA,NA,NA,,NA,NA,NA,,NA,NA,NA,,NA,NA,NA,,NA,NA,NA,NA,,NA,,NA,,,NA,NA,NA,NA,,,FALSE,FALSE,
60,"Aug 17, 2018 11:22:46 am","Aug 17, 2018 11:23:54 am",Completed Only Specific,http://www.surveygizmo.com/s3/4515476/Summarizing-the-Continuous-Integration-Process,Yes,,5,3,1,,5,5,5,,NA,NA,NA,,NA,NA,NA,,NA,NA,NA,,NA,NA,NA,NA,,NA,,NA,,,NA,NA,NA,NA,,,FALSE,FALSE,
62,"Aug 17, 2018 11:56:40 am","Aug 17, 2018 11:58:21 am",Partial,http://www.surveygizmo.com/s3/4515476/Summarizing-the-Continuous-Integration-Process,No,,NA,NA,NA,,4,4,2,,NA,NA,NA,,NA,NA,NA,,NA,NA,NA,,NA,NA,NA,NA,,NA,,NA,,,NA,NA,NA,NA,,,FALSE,FALSE,
63,"Aug 17, 2018 12:31:07 pm","Aug 17, 2018 12:50:07 pm",Completed Only General,http://www.surveygizmo.com/s3/4515476/Summarizing-the-Continuous-Integration-Process,No,,NA,NA,NA,,5,3,2,"I believe the difference in a build succeeding or failing should not be impacted by the duration of the build. To me, a build passing means the software is usable. You cannot gain information about the usability of a build based on its duration. However, it is true that slow builds increase developer wait times and add overhead, so I do agree that slow builds should produce a warning as shown.",5,5,5,"Does the report account for tests that were removed due to changing specifications? Sometimes tests can be removed for legitimate reasons. As long as this is accounted for, this summary would help identify skipped failed-tests.",5,5,2,,5,5,4,"I know how to improve the trend of this summary in the future: don't push broken builds on the release branch.  However, it may be less clear how not to push broken builds on the release branch. There are many techniques, and some of those can be anti-patterns themselves.",4,4,5,5,,Apprentice,,Professional Developer,,education,High,Moderate,Moderate,sole project maintainer,Travis Horn,horn.travis@gmail.com,TRUE,TRUE,
65,"Aug 17, 2018 2:12:26 pm","Aug 17, 2018 2:12:34 pm",Partial,http://www.surveygizmo.com/s3/4515476/Summarizing-the-Continuous-Integration-Process,No,,NA,NA,NA,,NA,NA,NA,,NA,NA,NA,,NA,NA,NA,,NA,NA,NA,,NA,NA,NA,NA,,NA,,NA,,,NA,NA,NA,NA,,,FALSE,FALSE,
66,"Aug 17, 2018 2:18:15 pm","Aug 17, 2018 2:25:28 pm",Completed Only General,http://www.surveygizmo.com/s3/4515476/Summarizing-the-Continuous-Integration-Process,No,,NA,NA,NA,,5,5,1,,5,5,4,"In the given example report, while the build number is useful, the commit & author would also be helpful.",5,5,2,,5,3,5,,4,4,4,4,,Bachelor,,Professional Developer,,e-commerce,High,High,High,developer,Vinny Rapisarda,vinnyrapisarda@gmail.com,TRUE,TRUE,
67,"Aug 17, 2018 2:34:04 pm","Aug 17, 2018 2:34:11 pm",Partial,http://www.surveygizmo.com/s3/4515476/Summarizing-the-Continuous-Integration-Process,Yes,,NA,NA,NA,,NA,NA,NA,,NA,NA,NA,,NA,NA,NA,,NA,NA,NA,,NA,NA,NA,NA,,NA,,NA,,,NA,NA,NA,NA,,,FALSE,FALSE,
69,"Aug 17, 2018 7:33:29 pm","Aug 17, 2018 7:33:44 pm",Partial,http://www.surveygizmo.com/s3/4515476/Summarizing-the-Continuous-Integration-Process,No,,NA,NA,NA,,NA,NA,NA,,NA,NA,NA,,NA,NA,NA,,NA,NA,NA,,NA,NA,NA,NA,,NA,,NA,,,NA,NA,NA,NA,,,FALSE,FALSE,
70,"Aug 17, 2018 7:42:18 pm","Aug 17, 2018 7:58:06 pm",Completed Only General,http://www.surveygizmo.com/s3/4515476/Summarizing-the-Continuous-Integration-Process,No,,NA,NA,NA,,5,4,3,Build failure should be optional.,5,4,4,,3,3,2,,4,4,4,I can see this being useful for justifying time spent on fixing/improving pipelines to managers/product owners.,4,4,4,4,,Self-studied,,Professional Developer,,Financial,High,High,High,Development engineer,,,FALSE,FALSE,
72,"Aug 18, 2018 12:39:00 am","Aug 18, 2018 12:50:10 am",Completed Both,http://www.surveygizmo.com/s3/4515476/Summarizing-the-Continuous-Integration-Process,Yes,,4,2,4,"Statistics like ""Skip failed tests"" and ""Late merging"" are useful for us or for any project.",3,3,3,"not much useful for us, but this might be useful for other projects",4,4,3,,4,4,2,,4,3,3,,3,5,5,3,,Bachelor,,Professional Developer,,financial,High,High,High,"developer, tester",,,FALSE,FALSE,
73,"Aug 18, 2018 4:44:57 am","Aug 18, 2018 4:45:03 am",Partial,http://www.surveygizmo.com/s3/4515476/Summarizing-the-Continuous-Integration-Process,Yes,,NA,NA,NA,,NA,NA,NA,,NA,NA,NA,,NA,NA,NA,,NA,NA,NA,,NA,NA,NA,NA,,NA,,NA,,,NA,NA,NA,NA,,,FALSE,FALSE,
74,"Aug 18, 2018 11:35:08 am","Aug 18, 2018 11:35:56 am",Partial,android-app://com.google.android.gm,No,,NA,NA,NA,,4,4,3,,NA,NA,NA,,NA,NA,NA,,NA,NA,NA,,NA,NA,NA,NA,,NA,,NA,,,NA,NA,NA,NA,,,FALSE,FALSE,
77,"Aug 18, 2018 2:01:56 pm","Aug 18, 2018 2:04:30 pm",Partial,http://www.surveygizmo.com/s3/4515476/Summarizing-the-Continuous-Integration-Process,Yes,,NA,NA,NA,,NA,NA,NA,,NA,NA,NA,,NA,NA,NA,,NA,NA,NA,,NA,NA,NA,NA,,NA,,NA,,,NA,NA,NA,NA,,,FALSE,FALSE,
78,"Aug 18, 2018 2:14:42 pm","Aug 18, 2018 2:29:49 pm",Completed Both,http://www.surveygizmo.com/s3/4515476/Summarizing-the-Continuous-Integration-Process,Yes,,3,2,1,"The time portion does not provide interesting information in the report, though it might be useful to get automatic reports of an upwards trend (again, not necessarily due to failures, GeoTools is ever growing, we add modules, we add tests every time bugs get fixed, so overall the trend should be upward).  The ""broken release branch"" part is unclear, did you also check pull requests? We get many from outsiders and we have various devs using PRs to test if the build is working or not due to slow computers (GeoTools is not ""rich"" and there is a significant portion of volunteer work).  Late merging on a volunteer based project is... well... not so informative. Pull requests are reviewed and merged based on volunteer time, so it can be all over the place and that is well... normal. Also, the report seems to focus on feature branches on the project own repo, which we don't use much (often just for collaboration during code sprints), the results would be more interesting if it considered pull requests coming from other repos (which is the norm even for core developers).",2,3,2,,4,4,2,,2,3,2,,2,2,2,,4,3,2,3,,Master,,Professional Developer,,Geographic Information Systems,High,Moderate,Moderate,Developer,,,FALSE,FALSE,
79,"Aug 18, 2018 2:33:10 pm","Aug 18, 2018 3:22:02 pm",Completed Both,http://www.surveygizmo.com/s3/4515476/Summarizing-the-Continuous-Integration-Process,Yes,,5,3,4,"You reported for the ""east"" branch:  ""In your project, branches are typically synced with master every 9.42 weeks. However, branch east has last synced with master on 2018-02-22 14:17:04, and branch master has commits that are 11.99 weeks newer than that.""  Since master wasn't updated since 07/09/2015 I'm not sure where these times were calculated from.  % git merge-base origin/east origin/master                          05840624ab3d1d1dca14d1ccfebabcb61c42ec27  % git show --pretty=medium 05840624ab3d1d1dca14d1ccfebabcb61c42ec27  commit 05840624ab3d1d1dca14d1ccfebabcb61c42ec27 (tag: v5.1.4, josh/develop) Merge: 816dff67c5 8a9ed81b33 Author: Sébastien Besson < seb.besson@gmail.com> Date:   Thu Sep 3 21:04:45 2015 +0100  However, do note that the develop branch was regularly merged into the east branch following point releases to ensure it did not get out of sync by too much.  % git merge-base origin/east origin/develop 3122e009f1a2f09746b2f73fa2048e157ed0974f  % git show --pretty=medium 3122e009f1a2f09746b2f73fa2048e157ed0974f commit 3122e009f1a2f09746b2f73fa2048e157ed0974f (tag: v5.9.1) Merge: 1256948302 237f1fa4de Author: David Gault < d.gault@dundee.ac.uk> Date:   Fri Aug 10 15:04:27 2018 +0100  So it's only 8 days out of date.  Note that develop is the default branch for this repository on github, not master.  The outdatedness of the master branch does indicate that it has not been updated for point releases since 2015, which is useful to know.  (I'm not on this team any more since the end of June, but I'll mention it on the list). ",3,3,4,"Looking at the graph, the median is about 600s, and it's returned to this median level as recently as the 23rd of June.  Without seeing a larger time period, I would be cautious to state with certainty that the last bar is a genuine increase in build time or a statistical outlier.  This might be due to code changes (more code, more test cases, longer test duration etc.).  But it might also be due to network issues, maven central being slow, contention between virtual machines or other compounding factors.  While I do think that the trend is interesting, and worth investigation, I'm unsure it's necessarily relevant.  I do think that breaking down the time into finer granularity measurements: setup time, artifact download time, build time, test time, etc. would provide more insight into the phase of the build which was responsible for the variance.",4,4,5,"I don't see these in the bioformats git repository, so I assume these are examples from another project?",5,4,2,"There may be good reasons for a branch taking longer than usual to merge.  For example, maybe it is being held back for a later milestone, maybe it needs more work, or maybe it's bigger and more complex than a ""typical"" branch.  I don't consider the ""lateness"" as a failure criterion in and of itself, though it may be a warning flag to investigate further.",5,5,4,I would question why the project permits failing code to be merged into the master branch in the first place.  It should be tested on a separate branch and the test success or failure should be used as a criterion for merging or not.,4,4,4,NA,"Since I'm no longer on the team, I can't answer the last question.",Self-studied,,Professional Developer,,Scientific,High,High,High,"All of the above, primarily developer but I also maintain all the CI pipelines",Roger Leigh,rleigh@codelibre.net,FALSE,TRUE,"I think that in general it is beneficial and useful.  But I do think you need to be very careful about the interpretation of your statistics.  I'm unsure of the specific statistics you used when you drew the line over time over the top of the histogram, but it looks like it might have been linear regression over the histogram bin values.  I think that might be a bit too simplistic, since it's making assumptions about the fit to use which are likely to be untrue, is easily biased by outliers, and doesn't take into account the underlying steady state over time (if any); have you looked at kernel density estimation with a suitable bandwidth to smooth the data and eliminate noisy outliers?  This would also allow you to remove the binning entirely and smooth the raw data, which may be more informative so long as the bandwidth is appropriately sized.  I would say that some of the statistics were already reported to us in a similar way by the Jenkins CI system already used by the team (https://ci.openmicroscopy.org/view/Bio-Formats/job/BIOFORMATS-DEV-merge-build/buildTimeTrend for example).  This is in addition to the Travis and AppVeyor CI in use as GitHub integrations.  Best wishes, Roger"
80,"Aug 18, 2018 5:51:43 pm","Aug 18, 2018 5:56:28 pm",Completed Only General,http://www.surveygizmo.com/s3/4515476/Summarizing-the-Continuous-Integration-Process,No,,NA,NA,NA,,5,3,2,,4,2,5,,2,3,2,,5,5,3,,4,2,5,4,,Master,,NA,,telecomms,Moderate,High,Moderate,NA,Dominik,dwojtaszek@gmail.com,TRUE,FALSE,
81,"Aug 18, 2018 6:17:09 pm","Aug 18, 2018 6:17:33 pm",Partial,http://www.surveygizmo.com/s3/4515476/Summarizing-the-Continuous-Integration-Process,No,,NA,NA,NA,,NA,NA,NA,,NA,NA,NA,,NA,NA,NA,,NA,NA,NA,,NA,NA,NA,NA,,NA,,NA,,,NA,NA,NA,NA,,,FALSE,FALSE,
82,"Aug 18, 2018 6:29:38 pm","Aug 18, 2018 6:32:53 pm",Completed Only General,http://www.surveygizmo.com/s3/4515476/Summarizing-the-Continuous-Integration-Process,No,,NA,NA,NA,,4,3,2,,5,4,4,,4,4,1,,5,5,5,,2,4,5,4,,Bachelor,,Professional Developer,,Consumer fiance,Moderate,High,High,Developer,Dan,daniel@langer.me,TRUE,TRUE,
83,"Aug 18, 2018 6:33:55 pm","Aug 18, 2018 6:40:30 pm",Completed Only General,https://www.surveygizmo.com/s3/4515476/Summarizing-the-Continuous-Integration-Process,No,,NA,NA,NA,,4,NA,1,Build speeds are a very noisy signal and can depend on a lot of things other than the code being built.,5,5,5,,4,4,1,,4,4,2,,2,3,3,3,I don't care about most of these signals and I don't get why you apparently do.,Bachelor,,Industrial Researcher,,platform as a service,High,High,High,I run a CI service,,,FALSE,FALSE,
84,"Aug 18, 2018 6:43:48 pm","Aug 18, 2018 6:56:22 pm",Completed Only General,android-app://com.google.android.gm,No,,NA,NA,NA,,5,4,1,"If there is a planned increase of build time from a build to another, should be some way to tell that to your tool.",5,3,1,,5,4,1,,5,5,4,,5,4,5,5,,Bachelor,,Professional Developer,,"Financial, web",High,Moderate,High,Developer,,,TRUE,TRUE,
86,"Aug 19, 2018 3:24:33 am","Aug 19, 2018 3:24:46 am",Partial,http://www.surveygizmo.com/s3/4515476/Summarizing-the-Continuous-Integration-Process,No,,NA,NA,NA,,NA,NA,NA,,NA,NA,NA,,NA,NA,NA,,NA,NA,NA,,NA,NA,NA,NA,,NA,,NA,,,NA,NA,NA,NA,,,FALSE,FALSE,
88,"Aug 19, 2018 7:40:14 am","Aug 19, 2018 7:53:23 am",Completed Only General,http://www.surveygizmo.com/s3/4515476/Summarizing-the-Continuous-Integration-Process,No,,NA,NA,NA,,1,1,1,https://groups.google.com/d/msg/checkstyle/lUtsdBZ6w14/0dIKF_VyCgAJ,1,1,1,"skips of tests are usually configurable from code, so code analysis is much better. detection or skipped test should fail build.",4,4,4,"unsynced branches is a problem, in general I agree, but your implementation doe snot work well , see my comment at https://groups.google.com/d/msg/checkstyle/lUtsdBZ6w14/0dIKF_VyCgAJ.  ",3,3,3,"team should use PullRequests model and verification on PullRequests level, rather than on master. Failure on release branch should be more like exception.",3,2,2,1,,Master,,Professional Developer,,financial,High,High,High,I play in all roles,Ro,,FALSE,FALSE,
89,"Aug 19, 2018 8:35:08 am","Aug 19, 2018 8:39:30 am",Completed Both,http://www.surveygizmo.com/s3/4515476/Summarizing-the-Continuous-Integration-Process,Yes,Google Closure Compiler,4,5,3,,5,3,2,,3,3,2,,3,3,3,Google Closure Compiler uses a different branching strategy. Very few local branches are maintained.,5,4,4,,3,3,3,2,,Bachelor,,Professional Developer,,Financial,High,High,High,NA,,,FALSE,FALSE,
90,"Aug 19, 2018 9:00:16 am","Aug 19, 2018 9:01:15 am",Partial,http://www.surveygizmo.com/s3/4515476/Summarizing-the-Continuous-Integration-Process,No,,NA,NA,NA,,3,3,2,,NA,NA,NA,,NA,NA,NA,,NA,NA,NA,,NA,NA,NA,NA,,NA,,NA,,,NA,NA,NA,NA,,,FALSE,FALSE,
91,"Aug 19, 2018 9:04:14 am","Aug 19, 2018 9:04:23 am",Partial,http://www.surveygizmo.com/s3/4515476/Summarizing-the-Continuous-Integration-Process,No,,NA,NA,NA,,NA,NA,NA,,NA,NA,NA,,NA,NA,NA,,NA,NA,NA,,NA,NA,NA,NA,,NA,,NA,,,NA,NA,NA,NA,,,FALSE,FALSE,
92,"Aug 19, 2018 10:23:55 am","Aug 19, 2018 10:24:03 am",Partial,http://www.surveygizmo.com/s3/4515476/Summarizing-the-Continuous-Integration-Process,No,,NA,NA,NA,,NA,NA,NA,,NA,NA,NA,,NA,NA,NA,,NA,NA,NA,,NA,NA,NA,NA,,NA,,NA,,,NA,NA,NA,NA,,,FALSE,FALSE,
93,"Aug 19, 2018 1:03:48 pm","Aug 19, 2018 1:17:05 pm",Completed Only General,http://www.surveygizmo.com/s3/4515476/Summarizing-the-Continuous-Integration-Process,No,,NA,NA,NA,,2,1,3,"the causes that would trigger this issue are hidden from the user. for example, which branch has the slowness increase over time can be immensely meaningful, but more importantly the issues can be ephemeral and to some extent unrelated to any bad practices on the part of engineers. slow builds can just as easily (in my experience more often are ) a symptom of overconstained resources for a development team. if the team is going great and generating a lot of work, this can end up being a perverted incentive, encouraging them to slow down, not increase, dev velocity",4,5,3,"if the skipped tests are changing frequently, id be very interested in that setup. however skip tests have been a normal part of the tradeoffs of testing vs labor available. in terms of actuallu reducing risks to the project, skipped tests havent been very meaningful except in egregious/pathological cases",4,4,1,"late merging isnt a technology problem as often as its a people problem.  it often identifies communication issues within or between teams. being aware of it as a manager or developer is key, but its not actionable in a build context",4,4,4,,3,2,3,2,,Master,,Other - Write In,CTO and developer,industrial & SaaS- internet services,High,High,High,"all of the above, primarily leading teams now",Joe Heck,heckj@mac.com,FALSE,TRUE,
94,"Aug 19, 2018 5:52:22 pm","Aug 19, 2018 6:18:26 pm",Completed Only General,http://www.surveygizmo.com/s3/4515476/Summarizing-the-Continuous-Integration-Process,No,,NA,NA,NA,,4,4,1,The slow build problem is compounded by cloud CI tools which have an underlying variance in build times due to various limitations in sharing disk/memory/cpu.,4,5,1,My team has previously built tooling to auto ignore flaky tests :). Sometimes its a necessity. Integration tests with external depenendencies that cannot be mocked may also need ignoring if issues with those dependencies occur. Skipping these should not fail a build (perhaps having configurable fail on ignore would be nice). ,4,5,2,Rebasing should happen often. Kinda neutral on this one if it should even be a warning...,5,2,4,"Often a release branch can break due to external dependencies e.g failure due to upload and deploy a new version of the app due to 3rd party issues. Often integration tests will run during a release, which are often prone to failure.",3,4,4,3,"We have teams dedicated to CI pipelines that will build tooling and further automation around existing CI products. Some of that work captures metrics similar to what you have proposed, which is useful to guide initiatives to get dev teams to improve their CI practices and improve devspeed, whilat reducing the time it takes code changes landing on the master branch to ship to production.",Bachelor,,Professional Developer,,"Productivity, collaboration, software development and process tooling, CI tools.",High,High,High,"I develop a CI product, and we own our own CI pipelines.",Graham,ggatus@atlassian.com,TRUE,TRUE,"Great initiative. Im a developer at Atlassian working Bitbucket Pipelines. Would be great to provide the results of your work when its finished, and our product management team may also be interested :) Always happy to contribute to the dev/CI community if you want further insights."
95,"Aug 20, 2018 2:19:44 am","Aug 20, 2018 2:45:48 am",Completed Both,https://www.surveygizmo.com/s3/4515476/Summarizing-the-Continuous-Integration-Process,Yes,,3,4,3,The report is very verbose. I prefer an infographic style report for quick analysis,4,3,4,,4,3,2,,3,2,2,,4,2,3,,2,3,3,3,,Bachelor,,Other - Write In,Product Manager,Test automation,High,High,High,Product Manager,,,FALSE,FALSE,
96,"Aug 20, 2018 2:25:00 am","Aug 20, 2018 2:25:09 am",Partial,http://www.surveygizmo.com/s3/4515476/Summarizing-the-Continuous-Integration-Process,Yes,,NA,NA,NA,,NA,NA,NA,,NA,NA,NA,,NA,NA,NA,,NA,NA,NA,,NA,NA,NA,NA,,NA,,NA,,,NA,NA,NA,NA,,,FALSE,FALSE,
97,"Aug 20, 2018 5:42:19 am","Aug 20, 2018 5:45:08 am",Partial,http://www.surveygizmo.com/s3/4515476/Summarizing-the-Continuous-Integration-Process,No,,NA,NA,NA,,NA,NA,NA,,NA,NA,NA,,NA,NA,NA,,NA,NA,NA,,NA,NA,NA,NA,,NA,,NA,,,NA,NA,NA,NA,,,FALSE,FALSE,
98,"Aug 20, 2018 5:47:02 am","Aug 20, 2018 5:47:10 am",Partial,http://www.surveygizmo.com/s3/4515476/Summarizing-the-Continuous-Integration-Process,Yes,,NA,NA,NA,,NA,NA,NA,,NA,NA,NA,,NA,NA,NA,,NA,NA,NA,,NA,NA,NA,NA,,NA,,NA,,,NA,NA,NA,NA,,,FALSE,FALSE,
100,"Aug 20, 2018 6:32:54 am","Aug 20, 2018 6:45:36 am",Completed Only General,http://www.surveygizmo.com/s3/4515476/Summarizing-the-Continuous-Integration-Process,No,,NA,NA,NA,,4,3,2,,4,5,4,,5,3,2,,5,4,2,,4,4,3,3,,Master,,Other - Write In,Development Manager,airline /airport systems,Moderate,High,Moderate,Dev Team Mgr,gary kuehn,gary.kuehn@sita.aero,TRUE,FALSE,
103,"Aug 20, 2018 7:29:31 am","Aug 20, 2018 7:33:49 am",Completed Only General,http://www.surveygizmo.com/s3/4515476/Summarizing-the-Continuous-Integration-Process,No,,NA,NA,NA,,4,3,5,"Over time, builds take longer, therefore the definition of a slow build should be noted as a percentage - i.e. ""if a build takes 10% longer to complete than the previous build, fail the job"".",4,4,5,,5,4,4,,4,4,3,,3,4,5,5,,Self-studied,,Professional Developer,,Public sector,High,High,High,Developer,Andrew Langhorn,andrew@ajlanghorn.com,TRUE,TRUE,
106,"Aug 20, 2018 9:39:36 am","Aug 20, 2018 9:49:47 am",Completed Both,http://www.surveygizmo.com/s3/4515476/Summarizing-the-Continuous-Integration-Process,Yes,sonarqube,4,2,2,,4,2,2,,4,4,2,,4,4,2,,4,4,2,"In real-life we observe false-positives in the build infra as well (in addition to, much more infrequent bad commits), whose frequency would be nice to track using such a tool.",3,2,4,4,The full overview of CI practices would require additional information such as code coverage and cannot be captured by only looking at the sources of info that this report relies on.,Master,,Professional Developer,,code analysis,High,High,High,product owner,Dinesh Bolkensteyn,dinesh.bolkensteyn@sonarsource.com,TRUE,TRUE,
107,"Aug 20, 2018 10:46:22 am","Aug 20, 2018 10:52:10 am",Completed Only General,http://www.surveygizmo.com/s3/4515476/Summarizing-the-Continuous-Integration-Process,No,,NA,NA,NA,,5,3,2,"Rather than a ""single slow build == fail"" model, perhaps a ""last couple builds were slow"" or ""build times are trending upward"" causing a fail.  I've seen slow builds that were because of an intermittent network issue, or a sysadmin doing maintenance work, so having that cause a failure would be noisy.",4,4,5,,3,3,2,"I wouldn't want long-lived branches to trigger failures, but I do *really* like the insight this provides.  I wonder if this is more ""summary email report"" information than ""dashboard"" information.",4,5,4,,4,3,5,5,,Master,,Professional Developer,,financial,High,High,Moderate,developer,Adam Parkin,pzelnip+antipatternci@gmail.com,TRUE,TRUE,"Interesting ideas, I'd be interested in hearing more about them!"
109,"Aug 20, 2018 11:05:34 am","Aug 20, 2018 11:06:49 am",Completed Only Specific,http://www.surveygizmo.com/s3/4515476/Summarizing-the-Continuous-Integration-Process,Yes,mage,4,4,4,,4,3,4,,NA,NA,NA,,NA,NA,NA,,NA,NA,NA,,NA,NA,NA,NA,,NA,,NA,,,NA,NA,NA,NA,,,FALSE,FALSE,
110,"Aug 20, 2018 3:28:57 pm","Aug 20, 2018 3:32:10 pm",Completed Only General,http://www.surveygizmo.com/s3/4515476/Summarizing-the-Continuous-Integration-Process,No,,NA,NA,NA,,5,5,3,,5,5,4,,5,5,4,,5,5,4,,5,5,5,5,,Bachelor,,Professional Developer,,Advertising,Moderate,High,High,operations,Thomas Cudd,thomascudd@gmail.com,TRUE,TRUE,
111,"Aug 20, 2018 6:57:09 pm","Aug 20, 2018 7:04:05 pm",Partial,http://www.surveygizmo.com/s3/4515476/Summarizing-the-Continuous-Integration-Process,No,,NA,NA,NA,,5,NA,1,"I don't really understand the ""I know how to address the different warnings"" one.  Mostly parroting my earlier feedback here, but I don't work for the machines.  The machines work for me.  Slow builds are a massive time sink for sure, but failing the build as a sort of ""tut tut go fix this!"" will quickly get the tool ignored.  Besides, as a project grows in complexity won't there be a tendency for the most recent master build to almost always take longer than all previous (barring some refactor that removes code and tests I suppose)?",5,NA,5,"These ""i know how"" questions are weird.  I mean, I understand that in order to fix skipped tests I need to ... turn them on? Is there some context though?  Would my manager know how to do that? probably not.  Honestly in a perfect world I would saying that having any skipped tests should be a build failure.  Fix them or remove them.",NA,NA,NA,,NA,NA,NA,,NA,NA,NA,NA,,NA,,NA,,,NA,NA,NA,NA,,,FALSE,FALSE,
112,"Aug 20, 2018 7:01:12 pm","Aug 20, 2018 7:09:09 pm",Completed Only General,https://www.surveygizmo.com/s3/4515476/Summarizing-the-Continuous-Integration-Process,No,,NA,NA,NA,,4,1,2,"I'm a little curious why the y-axis is measured in seconds. Most CI times will be easily measurable in minutes, and I think developers and managers will have slightly less cognitive overhead with that unit of measure.",4,4,5,,3,4,3,"Is everything in blue text a hyperlink? If not, another color choice would probably be beneficial. Also, a graph showing these dates might be helpful or at least interesting.",4,4,4,"The average time to fix is an interesting value. It might be valuable to have that data superimposed onto this graph, although that might make it too noisy to be helpful.",3,4,4,4,,Self-studied,,Professional Developer,,"DevOps, CI/CD",Moderate,High,High,CI developer/owner/mentor,Ben Harvill,dragonfox257@gmail.com,TRUE,TRUE,
113,"Aug 21, 2018 4:49:48 am","Aug 21, 2018 6:30:04 am",Completed Only General,http://www.surveygizmo.com/s3/4515476/Summarizing-the-Continuous-Integration-Process,No,,NA,NA,NA,,4,4,3,,3,3,5,,4,4,1,,3,4,2,,4,4,4,4,,NA,,NA,,,NA,NA,NA,NA,,,FALSE,FALSE,
114,"Aug 21, 2018 5:02:46 am","Aug 21, 2018 5:03:02 am",Partial,http://www.surveygizmo.com/s3/4515476/Summarizing-the-Continuous-Integration-Process,No,,NA,NA,NA,,NA,NA,NA,,NA,NA,NA,,NA,NA,NA,,NA,NA,NA,,NA,NA,NA,NA,,NA,,NA,,,NA,NA,NA,NA,,,FALSE,FALSE,
115,"Aug 21, 2018 8:58:07 am","Aug 21, 2018 8:59:27 am",Partial,http://www.surveygizmo.com/s3/4515476/Summarizing-the-Continuous-Integration-Process,No,,NA,NA,NA,,5,5,4,,NA,NA,NA,,NA,NA,NA,,NA,NA,NA,,NA,NA,NA,NA,,NA,,NA,,,NA,NA,NA,NA,,,FALSE,FALSE,
116,"Aug 21, 2018 9:06:10 pm","Aug 21, 2018 9:06:24 pm",Partial,https://www.reddit.com/r/devops/comments/97wt3t/cianalyser_a_tool_for_automated_detection_of_ci/,No,,NA,NA,NA,,NA,NA,NA,,NA,NA,NA,,NA,NA,NA,,NA,NA,NA,,NA,NA,NA,NA,,NA,,NA,,,NA,NA,NA,NA,,,FALSE,FALSE,
118,"Aug 22, 2018 8:43:22 am","Aug 22, 2018 8:51:59 am",Completed Only General,http://www.surveygizmo.com/s3/4515476/Summarizing-the-Continuous-Integration-Process,No,,NA,NA,NA,,5,2,4,,2,4,4,"I can't tell from this report whether the skipped tests have since been un-skipped or whether they are still present in the test suite today. I don't know what to do about the former; the latter, I want to know which tests and how long they've been skipped for",4,2,2,"Sometimes branches aren't ever meant to be merged back into main (they contain experiments, debugging code, etc and are kept around as useful references). I'd want a clear and convenient way to exclude these branches from this assessment",4,4,2,,4,4,4,3,,Master,,Professional Developer,,web applications,High,High,Moderate,developer,Carol Nichols,carol.nichols@gmail.com,TRUE,TRUE,
119,"Aug 22, 2018 11:02:03 am","Aug 22, 2018 11:02:20 am",Partial,http://www.surveygizmo.com/s3/4515476/Summarizing-the-Continuous-Integration-Process,No,,NA,NA,NA,,NA,NA,NA,,NA,NA,NA,,NA,NA,NA,,NA,NA,NA,,NA,NA,NA,NA,,NA,,NA,,,NA,NA,NA,NA,,,FALSE,FALSE,
