Project,Builds,Coeff,Increase
google_closure-compiler,305,-6.39023863121645,-23.3569530064096
Project,Builds,Coeff,Increase
geotools_geotools,576,-11.2109635111999,-26.9315365343775
Project,Builds,Coeff,Increase
speedment_speedment,101,13.7832101610511,82.4206438052975
Project,Builds,Coeff,Increase
spring-cloud_spring-cloud-aws,286,1.32773068249338,11.9805197667258
Project,Builds,Coeff,Increase
google_closure-compiler,305,-6.39023863121645,-23.3569530064096
Project,Builds,Coeff,Increase
geotools_geotools,576,-11.2109635111999,-26.9315365343775
Project,Builds,Coeff,Increase
speedment_speedment,101,13.7832101610511,82.4206438052975
Project,Builds,Coeff,Increase
spring-cloud_spring-cloud-aws,286,1.32773068249338,11.9805197667258
Project,Builds,Coeff,Increase
google_closure-compiler,305,-6.3968937368635,-23.3810033613936
Project,Builds,Coeff,Increase
geotools_geotools,576,-12.3980490997835,-29.19739463831
Project,Builds,Coeff,Increase
speedment_speedment,101,13.7832101610511,82.4206438052975
Project,Builds,Coeff,Increase
spring-cloud_spring-cloud-aws,286,1.32773068249338,11.9805197667258
Project,Builds,Coeff,Increase
google_closure-compiler,305,-6.3968937368635,-23.3810033613936
Project,Builds,Coeff,Increase
geotools_geotools,576,-12.3980490997835,-29.19739463831
Project,Builds,Coeff,Increase
speedment_speedment,101,13.7832101610511,82.4206438052975
Project,Builds,Coeff,Increase
spring-cloud_spring-cloud-aws,286,1.32773068249338,11.9805197667258
Project,Builds,Coeff,Increase
google_closure-compiler,305,-6.3968937368635,-23.3810033613936
Project,Builds,Coeff,Increase
geotools_geotools,576,-12.3980490997835,-29.19739463831
Project,Builds,Coeff,Increase
speedment_speedment,101,13.7832101610511,82.4206438052975
Project,Builds,Coeff,Increase
spring-cloud_spring-cloud-aws,286,1.32773068249338,11.9805197667258
